# Dipoles on mobile particles in atomic unit
# -----------------------------------------
# Dipole:   1 au = 2.541746 D
# step        0
#          mux                     muy                     muz         
-4.433484812763571E-001 -1.036234045573943E-001 -4.427922497523475E-001
+8.870377103921576E-002 -1.539326300422215E-001 -2.867701092781770E-001
+1.016150900805009E-002 +1.860135115489873E-002 +2.660037665669327E-002
-1.853226265800537E-001 -4.899956557999300E-003 -5.029866551789962E-001
-1.166445799985174E-001 +1.819535833264652E-001 -8.964769519823999E-002
+2.286942110762940E-001 +1.621566616057988E-001 +8.468822074108817E-003
-1.914993644071676E-002 +2.410909118599267E-001 -2.819377824011152E-001
+2.765426755440992E-001 +2.320588047004417E-002 +1.810099281238390E-001
+3.781274957387907E-001 -2.289495692226485E-001 +5.213823865081513E-002
+2.392389701257859E-001 +3.102762075976505E-001 +1.967945971497000E-001
-7.634200409321564E-004 -1.842028540291217E-001 +2.691180167123519E-002
-5.728193523744762E-002 -4.311936289120243E-002 +1.447268839695395E-001
-6.137444393519063E-001 +2.090847938820421E-001 +3.643238779905406E-001
+5.590925717653346E-002 -1.661699460794820E-001 -2.484890957482535E-001
+2.712353434100846E-002 +1.055155744356242E-001 +5.622594248654354E-002
+1.901788768054604E-001 +9.648045538116116E-002 -3.216194473421394E-001
-7.491637406735342E-002 +4.318452636244458E-001 -3.962039216879918E-001
-2.770457462041234E-001 +1.272665846423031E-001 +1.515794360159941E-001
-7.363717687027853E-002 +9.235467500125398E-002 -8.227941243175524E-002
+3.301035880837209E-002 +4.192416219881683E-002 +1.988549712268837E-001
+1.282626862070477E-001 +3.139419429666639E-001 -2.183737753051066E-001
+1.598645299060540E-001 -1.998084121948535E-001 +3.578772102399496E-001
+1.124661841151244E-001 -2.648764054257999E-001 +6.133322103959717E-002
+3.054564067447663E-001 +6.068765445391228E-003 -1.887863323956554E-001
-1.026263851879153E-001 -2.562110214872867E-001 -5.089913575215529E-001
+2.204517117302270E-001 -4.527300701007586E-002 -1.432291577192241E-001
+1.425464175949619E-001 +2.602032390549835E-001 -1.279375858047175E-001
-2.483201854448694E-001 +1.955541611727777E-001 -1.614553851781335E-001
+2.558231498754415E-002 +7.972547463808129E-002 -2.494748792203312E-001
+2.650102185452340E-001 +6.961799212324755E-002 -1.581938242505546E-001
-6.560188956835544E-002 +1.927272808388193E-001 -2.077604951150096E-001
-3.677255223032305E-002 -2.541596958485451E-002 -4.673510225325900E-002
-1.570847858443638E-001 +3.904093399966439E-001 +1.020363678896262E-001
-9.061918436531503E-002 -2.085794219270712E-001 -8.235507088252102E-002
+1.612735754611690E-001 -3.721287295920256E-001 +1.677405251422859E-002
+1.988831446055440E-001 +1.007224574526039E-001 -2.257392754164248E-001
+1.286856891974086E-001 +8.722761075689194E-002 -1.379029636462731E-001
+3.922453135201374E-001 -3.339597693315291E-002 -1.552925941596172E-001
+7.522827632093070E-002 -4.928651261642956E-001 -2.430758113676688E-001
-3.420917311185891E-002 -6.280793550614432E-002 -2.095793946868955E-001
+2.290959812141151E-001 +1.808912229624220E-001 +1.017890149095936E-003
-6.467721353657307E-002 -2.158967438548109E-001 -3.102909729261726E-001
-9.039378389800114E-002 +2.724446400581763E-001 -5.329776637616842E-002
+2.176219505181169E-001 +1.667561563392770E-003 -1.494126697456405E-001
-1.445924844033229E-002 -3.820056307505666E-001 -3.595868971058359E-001
-5.339812255629558E-002 -5.892823321310362E-002 -2.059573303610876E-002
-2.744640434581669E-001 -9.596715831394903E-002 -2.342461107129651E-001
-1.140648884052542E-001 -2.506155655981468E-002 -3.054907719320465E-001
+2.850219922026683E-001 -1.113042838173117E-001 -2.606925430949562E-002
+8.556982712075388E-002 +3.326026554389050E-001 +1.923104317599988E-001
+2.217445238628220E-002 +2.258017021586669E-001 -2.329864459015820E-001
+5.595384105173229E-002 -1.854733673722351E-002 -3.288939761885025E-002
-2.948146598327513E-001 -6.300959526733571E-001 +6.543643596255064E-003
+1.313864672349638E-001 -2.456908904752186E-001 -3.058856759217493E-002
+3.766691852465864E-002 -8.017222435116599E-002 +1.668674178301326E-001
+4.019156940046009E-002 -1.331275038151569E-001 +2.367564367456407E-001
-5.411315806529213E-002 +1.902857254893970E-001 +2.517153050899147E-001
-1.976452550144336E-001 -3.968970918619616E-001 -1.023572206635771E-001
-5.429268769788377E-001 +5.018673162735151E-002 -9.240829843410064E-002
+2.345211548985598E-001 +5.262141023254550E-002 -1.113083736672319E-001
-8.956641300600934E-003 -1.644786293899993E-001 +2.911257631977324E-001
-1.649008053058254E-001 -9.372065733556144E-002 -2.397913292420707E-002
-9.950232909193862E-003 +4.705970807114405E-002 -1.579548676100935E-001
+1.209684817179627E-001 +1.047596453643552E-001 -1.463483351345438E-001
+1.379836203214352E-001 -4.326016538114666E-002 +2.108009885752817E-001
-9.419163716082513E-002 -3.003336184677431E-001 -8.746516659938029E-002
-4.602205042221241E-002 -3.697239307512522E-002 -3.244456989092122E-002
-1.923428262492484E-001 -4.291034253548945E-002 +1.569874183931982E-002
-1.413915242316524E-001 -1.462793651030978E-001 +9.371907740925002E-003
+8.634214717818958E-002 -2.071539216367436E-001 -1.452504545149259E-001
+4.837034899659767E-001 -3.868349962105660E-002 +2.697071781964059E-002
-2.747276129754724E-001 -5.536844930967892E-001 +1.283325427081894E-001
-3.173927500108620E-001 -2.738775279105419E-002 -8.113043748443773E-002
-5.390715910185539E-002 -3.008461090993585E-001 -1.111806301559988E-001
+7.854735086964813E-002 +6.116535931124317E-002 +6.782057398749243E-002
+3.217736786514121E-002 +2.667940137297360E-001 -2.628584096760756E-001
+1.206713165925870E-001 -1.458676482452743E-001 -4.161659766756696E-001
-1.579626714910218E-001 +1.835620483172562E-001 +2.890384011691729E-002
-4.308533939802445E-001 -6.892482053949864E-002 -1.146731769143005E-001
-1.382311413251709E-001 +1.874629067933809E-001 -3.769906499451807E-001
-3.381908697686157E-001 -1.533379726681681E-001 -2.663209664370363E-001
-2.722615410934754E-001 -3.217155232326629E-002 +1.303663054487018E-002
-1.186098645351645E-001 -1.395791711447159E-001 +1.341709897310980E-001
-1.014629337300065E-001 -2.985879526136964E-002 +1.675075828837422E-001
+2.743305047959891E-002 +8.102606935815819E-002 -1.240967407952802E-001
-1.665235391188611E-001 +3.565508622836263E-001 -1.076161766525134E-001
-4.761627576285542E-003 -1.885380422735981E-001 -4.437380711012274E-002
+3.152778908209840E-002 -2.612007026580251E-002 -1.677786954655737E-001
+2.554902152656863E-001 +1.285065843351474E-001 -3.438206976462035E-001
+1.484713560660435E-001 +3.844266024374421E-002 -1.119852409842986E-001
+1.026215547916212E-001 -2.922292130638205E-001 -2.036424900898030E-001
+2.054164347946788E-001 -1.852199729899233E-002 -2.415592918714886E-002
-2.902569695022998E-002 +2.715496959682307E-001 -4.448969755407907E-001
+4.478816911954629E-002 -2.941671049849101E-001 -1.475371313875673E-001
-1.996783988332669E-001 +1.789571844855079E-002 -2.163379819012407E-001
-2.502278775571851E-001 -2.387442317752440E-001 -2.563568207091114E-001
+5.940128874230315E-002 -3.285767649989237E-002 +1.973136047383758E-001
+6.437927778495132E-002 -2.811410104828776E-001 -4.078776952819125E-001
-2.223261408090858E-002 +8.720717173743620E-002 +1.057462544867900E-001
-2.296913460836495E-001 -1.104725247687735E-002 -2.090191129771010E-001
-4.181039024133312E-002 -1.362124846361629E-001 +3.546417536102211E-001
-1.354282367091230E-001 +5.507656574577364E-002 +9.126415304007529E-002
+1.284919636528275E-001 -3.622739109690861E-001 -1.485003239569956E-001
+1.313994119069772E-001 -1.336470841123260E-002 -3.551292495661500E-002
+4.927446054909357E-002 +2.645502803247253E-001 -1.421912561259258E-001
-4.498112344091448E-002 -1.028257006028999E-001 -1.819434330616828E-001
+3.716837085905876E-001 +4.606523538977038E-002 +1.023540360683498E-001
+2.745906017184363E-001 -1.908739911512415E-001 -3.130401493143373E-001
+1.723046334377712E-001 +1.091361057038815E-002 -3.066807694002031E-001
-1.536047751097939E-001 +1.268238970709415E-001 -2.884868267772892E-002
-8.257420237712797E-002 -3.082947236129565E-001 -1.493715477613596E-001
+2.236547305344911E-001 +1.166604255767146E-001 +2.785727392295557E-001
-3.813309031860533E-002 +2.906631154767462E-001 +6.505170537594700E-002
+1.839809001416097E-001 -2.051835956890775E-001 -1.076669122255419E-001
+1.965515365083219E-001 -1.033539654999696E-001 -4.444920666430426E-002
+9.564526010929914E-003 -6.997050447553442E-002 +7.839768839526921E-002
-4.679719685428399E-002 +1.976231832147940E-001 +1.341710898299563E-001
+1.746358461659666E-002 +3.040115857641140E-001 +3.507488202658456E-003
+1.054305491062077E-001 -1.317327232370644E-001 -8.185314371048789E-002
+1.953559058889557E-001 -9.590158262861920E-002 -2.172121218431126E-001
+9.966426967945964E-002 +5.434504697194396E-002 +1.629627434003911E-001
+2.385221716877189E-001 +4.191626434790131E-002 -1.236962474931751E-001
-1.572201868343194E-001 -2.532795747384508E-002 -2.955825916891233E-002
+1.318406428811657E-002 +1.672561020976636E-001 -1.275066292472029E-002
+7.187834454408114E-002 +5.460759862674387E-001 +1.279844249396122E-001
+1.075289903460071E-002 +4.068560538486157E-002 -1.958337641937884E-001
+5.497734993257360E-002 +4.790341946806817E-002 +1.428390552520092E-001
-9.902637886663762E-002 +4.512507574850204E-001 -1.184023916174634E-001
+1.643091838038019E-002 -6.757174322670806E-001 -3.790037961638719E-002
+2.501091771478367E-002 +1.705313636273108E-001 +2.597616484306680E-002
-1.882612846427611E-002 +1.831410195358932E-001 +1.764402438066074E-001
-4.299483529051627E-002 +4.531812275012378E-002 -2.910711447024235E-001
-8.998729680120450E-002 -4.996693519213445E-002 -1.438921768736544E-001
-2.807909183741178E-001 +1.795835942930012E-001 -2.846138910211560E-001
+5.135300361503535E-002 -1.325972717294127E-001 +1.326543859121332E-001
-1.547192446107314E-001 +2.761384024677558E-001 -1.431966162349972E-001
+1.940358900575787E-001 +3.646088838622097E-001 -3.635157884662004E-002
-1.149446655081519E-001 -2.358909907088249E-001 -2.142612714631861E-001
-2.587116356477119E-001 -3.470864784197365E-002 -2.192159834219447E-001
+6.911353156688019E-002 +3.806475540954588E-002 +3.222700022240642E-002
+1.826881740387601E-001 +3.495816691245807E-001 -1.936463289117065E-001
+6.766343198467017E-002 +7.974461909215566E-002 +6.563921742772046E-002
+7.623300820792175E-002 +1.428880917476961E-001 +1.610553434504045E-001
+9.340106607426148E-002 -1.735572308706510E-001 -2.826298009693964E-001
-4.999590505670373E-002 -9.840135876367792E-003 -8.298267265914586E-002
-1.331910401596603E-001 +1.531112301125644E-001 -2.514111664171361E-001
+9.928289997932740E-002 -1.999723756012415E-001 -4.844031546567685E-002
+2.799612613751612E-001 +2.228328584047847E-001 -5.198618597432136E-002
-2.265451462888058E-001 -5.369006242941446E-002 -1.305889169170305E-001
-1.611679901705476E-002 -2.144870203627783E-001 -1.152024698953189E-002
+6.645805213246704E-002 -2.043646582737986E-004 +3.428462112021457E-002
+1.391697815026791E-001 -2.256641337440593E-001 +4.238890920049974E-002
-3.494766803617494E-001 -6.833435308657568E-003 -5.213121165977971E-002
-1.143120090865166E-001 +1.338575091728507E-001 -1.104581090942223E-001
+1.706584975220291E-001 -9.970078992824769E-002 -1.231730473313248E-001
+1.728353180744916E-002 +6.661011754253394E-002 +8.415666472984773E-002
+2.279693848568989E-001 +7.877562625775798E-002 +3.119682761148331E-001
+4.153686125782604E-001 +1.203676200871130E-001 -2.157498854055155E-001
+1.718646491213001E-001 -9.630541918385353E-002 -8.784337578360821E-002
-1.630293942241932E-001 -2.972648514865653E-001 +1.095415829974491E-001
+4.191589724590596E-002 -4.812284645799098E-002 +1.458706021044554E-001
-2.866269421508826E-002 +2.930241799416315E-001 -2.838804460486652E-001
-3.692325233468498E-002 +1.906652647107118E-002 -3.400502560208366E-003
+2.840669770581801E-002 -2.173529815704750E-001 -1.269415040150146E-001
-2.592099377008344E-001 +2.765136477577655E-001 -2.380678261380812E-001
-1.959433309634787E-001 -1.069458537660844E-001 -3.716078528044637E-001
+3.130352445736074E-001 -3.920025740171562E-001 -7.390747479690002E-002
+1.318243185235273E-002 +4.168554073309256E-001 +1.175954822512480E-001
-1.567893784417529E-001 -1.736446017465336E-001 -1.644356477478235E-001
+3.906964629352693E-001 -1.538644831583536E-001 -1.695993971790047E-001
+2.375864973720815E-001 +2.777768290402645E-001 -2.668385977321740E-001
+5.165848744329816E-001 +1.111571727788970E-001 -1.780337159395968E-001
+5.282837739724316E-002 +1.696233767846820E-001 +3.156469237786524E-001
-5.607963690988067E-002 -1.778575206747645E-001 -1.971897409801045E-001
+6.769153290662934E-002 -7.565722500514072E-002 -5.511549171903865E-002
+2.886360488662263E-002 -3.695991967485027E-001 -1.727618082086546E-001
-3.621820186531080E-002 +6.523042730419305E-001 -2.535160213467998E-001
+1.178417233868294E-001 +2.174736981620762E-001 -1.607814564450047E-001
+2.513573135188982E-001 +3.207278396083111E-001 +1.051613044385372E-002
-2.415936775422749E-001 -5.973719635448869E-002 +3.238904742456716E-001
-1.372537774312243E-001 +1.671181893963110E-001 -1.941679359739543E-001
+1.742035105698241E-001 -3.759672857562758E-002 -2.249756207393707E-001
-2.783190698984634E-001 -2.101473455514919E-001 -5.910029793741466E-002
-9.240454910516598E-002 -4.063676761476390E-001 -1.018829174980225E-001
+4.924028300311101E-003 +2.786145002204086E-001 -1.185926064798774E-001
-1.764474342840227E-001 -3.497038985693688E-001 -2.386607656197732E-001
-1.135498684618395E-001 +2.983585432383051E-001 -1.466457360284314E-001
-2.465644481708239E-001 -3.521951010466505E-001 +1.740199783477760E-003
+2.581246451342920E-001 +1.831018470679673E-001 -1.483970409789572E-001
-1.474171658929138E-001 +1.753182809980625E-003 -1.591930038778170E-001
+1.033102472443321E-001 +8.924621791403563E-002 -2.537409821934097E-001
-6.333745724027581E-002 -7.458094834198739E-002 -1.926290730254853E-001
+1.533954804743950E-001 +3.285324395660421E-001 -6.935423557159871E-002
+4.036135172137181E-002 +1.652140483887979E-001 -1.694690687235295E-001
-1.205599058457275E-001 +2.591342163938324E-001 +1.553754270146181E-001
+8.762048748629334E-002 +1.778550826808792E-001 -3.464822344758672E-002
-2.033231436949914E-001 -4.314074894808831E-001 +8.592336885540211E-002
+1.405414125614310E-002 +2.046445548623083E-001 +1.840577298533743E-001
-3.587364227190140E-001 -1.075077909384873E-001 -5.087775082766810E-002
-1.287751775206618E-001 +5.146465864802563E-002 +3.368853356819366E-001
-1.101505733669554E-001 +4.592526213573535E-002 -6.948652203313957E-002
-1.640914977534473E-001 -3.529643604166698E-001 -2.615353704245426E-001
+8.418550321301781E-002 -3.288789607342278E-001 +2.279854914768838E-001
-1.459141316128964E-001 +4.972504962756645E-002 -1.600097550468201E-001
-2.404041050193223E-001 -2.267953885134411E-001 -1.872964164518976E-001
-1.602003958338276E-001 -3.638054433843455E-001 -6.941552768580556E-002
-6.468433330448593E-002 +6.879502010415716E-003 -1.796183253366827E-001
+1.388440563023786E-001 +1.599938806410632E-001 -1.674142850825148E-001
+2.399344368965443E-002 +1.844912897909934E-001 -1.081557933229137E-002
-6.520605836823384E-002 -5.927593392545913E-002 +1.577774163413771E-001
-3.515462494917262E-001 -1.769370053000095E-002 -2.209982484445950E-001
+1.367237284151192E-001 -4.064570479405920E-001 -2.687681493187751E-001
-2.780673609384419E-001 -8.326886162025900E-002 +1.139778617676049E-001
+1.997551770315193E-002 +1.802465427386891E-001 -1.114101791707174E-001
-1.693185109768791E-001 +2.188546802495001E-001 -1.334576343589881E-002
+6.963906857935927E-002 -1.464536113034662E-002 +1.241160252091803E-001
-2.924342375481086E-001 -1.496861628381628E-002 -9.504726835799016E-002
-2.234894292623068E-001 +9.722912513275091E-002 +4.979415002199004E-002
-1.079161639751950E-001 +1.967612434612756E-001 +7.762359945408683E-002
+1.231499539673421E-001 +2.654523836803156E-001 +4.517641918544537E-001
+1.494261851650921E-001 -5.917691886369127E-002 -2.834207659785299E-001
+6.039239109877332E-002 +4.959927747606517E-002 +5.267213120491648E-002
+1.606199444567596E-001 -5.551676680516092E-002 -1.367498975455753E-003
-1.169745166098605E-001 +1.094883046755698E-002 -2.075789631211569E-001
+2.710211659280528E-001 +4.607639207988671E-002 -2.591786103256994E-001
-9.842108178995013E-002 +5.534946626464630E-002 -4.032274518542562E-001
-1.281534071112637E-001 +2.103844772599376E-001 -3.170992138733649E-001
-1.630551436748641E-001 -1.611644688626370E-001 +1.720844918347473E-002
-2.309512957725349E-001 -2.050702549928637E-001 +3.433883957681658E-002
-6.300052575686195E-002 +1.997036665022515E-001 -2.975289895800515E-001
-1.417443670108450E-001 +1.495194749697931E-001 -5.346486110395621E-001
+6.444419590165003E-002 +8.790844999382966E-002 -1.386107745755339E-001
-4.002287059258958E-001 -1.237138880000145E-001 -2.822834406082592E-001
+8.153834076114265E-002 -2.620713740208706E-001 -3.074962759303758E-001
+1.388319688338361E-001 +1.815879992501392E-002 -2.350862289121876E-001
-6.365790836584286E-002 -1.744906258735620E-001 +2.440775346444781E-001
+1.519432396381247E-001 -1.903590440578299E-001 +9.641298147090115E-002
+6.964718957078362E-004 +2.016056473982853E-001 +2.032127646265533E-001
-1.503428996869405E-001 -6.138607780993217E-002 -1.427297843070940E-001
+7.748874080194997E-002 +1.397977761527941E-001 -5.528524672602617E-002
+2.112592068707205E-002 +1.937805257516920E-001 +1.050133280206151E-001
+2.268358579601897E-001 -3.965592500458013E-001 +1.686038350009382E-001
-7.293193985435579E-003 -5.724572028798576E-003 -4.241057421019217E-002
-1.524478105695224E-001 -8.587232041510880E-002 +1.619808381851651E-001
-4.253800260481871E-002 +1.579716009228302E-001 +3.449170851285585E-001
-4.918989879586260E-002 +6.976202012980619E-002 +3.034184946478307E-001
+1.015081879725276E-002 +8.066132990059394E-003 +2.593166767867742E-002
+3.489261089494579E-001 +1.331629640847308E-001 -9.399660907900360E-002
+5.508510093183497E-001 +2.596203569456019E-001 +2.631172368562057E-001
+3.212655168105603E-002 +2.011597827919149E-002 +2.865925450744721E-002
+3.565837460302392E-001 +2.232392080082803E-002 -4.278050523211657E-002
-1.728744531623630E-003 -2.024326593697467E-001 -2.089454779541291E-002
-1.964711460969318E-001 +1.531214966622752E-001 -5.552729100247218E-002
-1.339496612289333E-001 -4.909461454798389E-002 -1.991819405537690E-001
+2.481522919566443E-001 +9.123781034906560E-002 +1.336348325637799E-001
+5.658025359795281E-002 -2.134226150436039E-001 -6.349841036701293E-002
-5.779045439018722E-003 +1.135766808392321E-002 +2.309394220341852E-002
-7.333339532904396E-003 +8.444796106735281E-003 +1.003554483055699E-002
-9.177783589034191E-003 +1.158796391271363E-003 +1.219483545155438E-002
+1.061807328703774E-002 +5.896283508568294E-003 -1.297820059312745E-002
-2.727568317423992E-002 -5.073338104795554E-003 +1.329228317118995E-002
-6.318384028193406E-003 -8.336917036803121E-003 +5.893581451147769E-003
+8.087970057644157E-003 +5.296267806776373E-003 -5.107141135061985E-003
+2.196716579213884E-002 -4.732587251021990E-003 -3.858236298399730E-003
+5.772935438855606E-003 -1.437558596846740E-002 -5.795262779645936E-003
+2.737906427688072E-003 +1.041222372387237E-002 -6.581768612485439E-003
-1.076570763545098E-002 +6.514736740600244E-003 +9.443445026804984E-003
-9.811432161151981E-003 -7.947972643574370E-003 -1.671796714779218E-002
-1.781052982678366E-003 +1.016111796201681E-002 +3.238979875952128E-002
+3.729373475364420E-003 +4.870393872624600E-003 -4.369064917830339E-003
+1.485200955154621E-003 -4.094163743508281E-003 -4.830992924851162E-003
-4.820502178705651E-004 +3.532514276853787E-003 -1.743115838032113E-002
-3.807153603949562E-003 +3.784170473324064E-003 +1.086551926950791E-003
-6.909166027695665E-003 +7.626337765860668E-004 +6.419184312663664E-003
-1.623151679882590E-002 -4.868038350058604E-003 +5.074368098156118E-003
-1.171496080088374E-003 -6.742319422665424E-003 +1.111168756923327E-002
-1.708151611321281E-002 -1.484038274227538E-004 -6.952838259402797E-003
-1.361094214432634E-004 +5.048054762101336E-003 -1.420426591868029E-002
+1.637242931912694E-002 +6.975124210389011E-004 -1.614505131742555E-002
+5.803476809251280E-003 -5.505183677147078E-003 -1.494800729448639E-002
-2.009132264603372E-002 +2.683760559309138E-002 +1.096327702660229E-002
-6.508325772307783E-003 -2.197146950809984E-003 +8.300565425806082E-003
+1.182681982602660E-002 -4.900531908364151E-003 -2.177739294546383E-002
+9.626157845224864E-003 -3.091630483392556E-004 +3.605901159650441E-003
-1.450354087246459E-003 -1.535705339749449E-002 +1.349256881205278E-002
+1.883048893222491E-003 +7.580416599312236E-003 +4.267404484654521E-003
-8.112007553675433E-003 -2.992586672900561E-003 -1.077137244797124E-002
-1.051567685686947E-002 +1.117208334487581E-002 -4.939426435845475E-003
+1.526850964534606E-002 -2.499568765659275E-002 -1.667187889222434E-002
+3.758738300800743E-003 -2.882256070605554E-003 +7.789726878584104E-003
+7.949055618585953E-003 -1.618091325148595E-003 +3.500582748707969E-003
-7.543250559837707E-003 +1.372534471771987E-002 -9.107892257006780E-003
+1.388781983113308E-003 +8.254907121638578E-003 -1.228567147199888E-002
+3.351437120053991E-003 +3.576921944426996E-004 +1.457519542107227E-002
-6.848371913330865E-003 -1.083392823993762E-002 -4.560369280898366E-003
+3.018025867716326E-003 -3.773382086717112E-003 -3.666315998329310E-003
+3.679892127398821E-003 +1.759837370201093E-002 +1.208240582839892E-002
+2.124563072928070E-002 -1.143352907343662E-002 +6.466593134085208E-004
-3.857859248046287E-003 +1.258884334092824E-002 -8.777489717709629E-003
+2.407145351064436E-003 +1.839564714639939E-003 -1.125735505138219E-002
-1.344421523481793E-003 -7.313270064697249E-003 -2.812149309922161E-002
-1.587096239056660E-002 +1.717339825745686E-002 +5.843386553970585E-003
+6.138566988310435E-003 -5.077044389445021E-003 -3.724056274358251E-003
+1.809913690839368E-002 -1.017109453006181E-002 -4.176467164529502E-003
-8.866550194329205E-003 +4.111514476795422E-003 +2.983509928831127E-003
+8.822914795701679E-003 -1.792351942161273E-003 -1.100385120851283E-002
+1.203688483576054E-002 +2.125850850924263E-002 -4.890429520478497E-003
-5.820220337412772E-003 -9.221325142431772E-003 -8.085557075535117E-003
+8.042214488598355E-003 -9.334376796948842E-003 -6.947993248227360E-003
+1.135864958283325E-002 +4.783318171238651E-003 +1.723077986889531E-002
+2.109486249283168E-002 +1.389441024328752E-002 +1.436417942476140E-002
+8.167391893830418E-004 +6.587583741557212E-003 +6.168212649523584E-003
+1.785303315293884E-002 -1.499691121088753E-002 -1.935879040401219E-002
-2.213850140113936E-003 -4.525282619361676E-004 -9.089615392867255E-004
+3.769541694411291E-004 +1.332121523504019E-002 +7.719483178012868E-003
+1.202885823528731E-002 -1.371951717357112E-003 -1.311766630720338E-002
-3.107983308848873E-003 +1.433509482265318E-002 -4.998727799431545E-003
+4.679313531508516E-003 +6.385761054759043E-003 +1.162691850446965E-003
+1.671278819898736E-002 +3.190010534466662E-003 +2.470788493239564E-003
+1.352843089546111E-003 -5.641719585916670E-003 +2.341084049635740E-003
-3.091857262232451E-003 +1.654983072104463E-003 -1.345193687181308E-002
+5.063254402455054E-003 -8.849570418507100E-003 +4.867267816279914E-003
+1.147619345973740E-002 -1.013236604870424E-002 +5.315125172088362E-003
-4.787635929804258E-003 +1.836568214940596E-003 -2.892121974420292E-002
+1.697143569154001E-002 +1.239060974587976E-002 -1.159318627743283E-002
-4.997363039212981E-003 -2.809586270418752E-003 +2.579385098521392E-002
+8.354874097817561E-003 -1.276309022556266E-003 -4.903949028991102E-003
+5.106738350647003E-003 -6.909473735521391E-003 +1.226831093317791E-002
-1.192484596303913E-002 -5.824526540786399E-004 -2.050301021540273E-002
+7.412463569679686E-003 +1.480392737288405E-003 +1.639249682948578E-002
-2.180335169377144E-002 +2.762199751209172E-003 -1.311438146834877E-002
+2.933113167067887E-003 +6.021384910417990E-003 -1.395019993379337E-002
-1.386702577879665E-002 +4.439116582374288E-003 -2.908071710413283E-002
+7.146174632454561E-003 -8.733523048999112E-003 -1.088891403242717E-003
+1.137362402566160E-003 -5.418922360078734E-003 -5.503277097537550E-003
+1.650370421539557E-002 -1.764643471961998E-002 -1.338512198663871E-002
-1.409862561916609E-002 +6.595925725352406E-003 -1.437297397583087E-002
-7.323447528590952E-003 -1.073423440583282E-002 +3.555398567454724E-004
+4.111471040982070E-003 +5.332321803477954E-003 -1.538416411896795E-003
-9.243474825617886E-005 +3.179681842977728E-003 -1.536895865353955E-002
+1.375424550300514E-002 +5.745857301614151E-004 -1.879003582037038E-002
-8.214927748594690E-004 -1.297622343118392E-002 -8.871075361836447E-003
+9.013144373780374E-004 +2.528344814643309E-002 -6.755478590840570E-003
-1.809542918326037E-002 -4.046018970882131E-003 -2.829020429421588E-003
-1.597117591296698E-003 -1.379862335666286E-003 +6.593896562936893E-004
-4.070256346600892E-003 -6.492836668930683E-003 -2.883779405885431E-002
-1.795841390481850E-002 -4.455613532387592E-004 -2.068659336760621E-002
+1.367785142012753E-002 +1.079864421584805E-002 -1.531426482577897E-002
+1.468310013165691E-002 +2.225626415339952E-003 -1.963804652180219E-002
+1.402726794581079E-002 -1.476523148556915E-002 -2.201906289369526E-002
+1.448551845723322E-002 -1.032855962842740E-003 -8.596093819352458E-003
-6.323877130657290E-004 -6.821024402754392E-003 -1.131225572959246E-002
+3.769994506867578E-002 +1.805196282170764E-002 +1.508802380300451E-002
+9.496057729388059E-003 +2.411560875554770E-003 +1.195887352877541E-004
-3.034754769469405E-002 -7.813144664203192E-003 -1.628024649537267E-003
+1.260720028598593E-004 +8.455842204022651E-003 -9.304065066350542E-004
-1.467588770981338E-002 +1.212297137647524E-002 -2.935090435083102E-002
+1.480770624207390E-002 -5.648735648967349E-003 -6.059655004175091E-003
-1.986075992189711E-002 -1.628487280458785E-002 -5.313180516573559E-004
-4.234498695812523E-004 -6.831096156365902E-003 +5.760047717877571E-003
-6.494190870822807E-003 -4.632907181663099E-003 -5.139464047385245E-003
+9.852536359380926E-003 -1.536860975593909E-002 -2.572658608179913E-004
+1.130307025063090E-002 +8.347587587476359E-003 +8.516938411380563E-003
+6.231407769027546E-003 -3.776126559181922E-003 -1.886437624991105E-002
-3.695722183955620E-003 -2.775641011466414E-003 +1.577644873543942E-002
+1.831755512409105E-002 +8.406506753872438E-003 +1.015512356881034E-002
-2.469755342745963E-003 +5.298068783874058E-003 -9.541481292258897E-003
-8.757838630837641E-003 -7.188584605869163E-003 -5.705903518562083E-003
+6.810497890115580E-003 -3.976533417043658E-003 +6.943130298868149E-003
+1.382428624549728E-003 +5.368539889188688E-002 -7.882978736937697E-003
+7.757139487103572E-003 -2.093773057422618E-002 -1.978248556207575E-002
+1.027097315540977E-002 -1.983135197161901E-002 +8.350251636809134E-003
-4.019066860463318E-003 -1.842931509483004E-002 -2.482680479622550E-002
-3.682085852211168E-003 -2.244507694154193E-003 -2.579400395275425E-004
-1.277342963678845E-002 +1.749881887830981E-002 -1.151609415644789E-002
-3.406125650002376E-003 -1.320698553886380E-002 +6.760737852512035E-004
-2.156024148570504E-002 -1.155007667421739E-002 -2.369221665655944E-002
-3.212454381245471E-003 -2.735804268320497E-003 +1.517086055911465E-002
+1.350164806476574E-002 +1.118505158121151E-002 -1.267941798881592E-002
-1.212990356623315E-002 +1.499289283159567E-003 +7.283936522303621E-004
+3.126659865063367E-002 -7.112326568529899E-003 +7.050728116975492E-003
-2.747779150651490E-003 -1.668326068357422E-002 +9.010866435229720E-003
-3.216206455881379E-003 -3.759927541442613E-003 +1.086134524088545E-002
+2.535196127345505E-003 -3.466540136473289E-003 -2.294008473543796E-002
+2.038082114214906E-003 +8.731044655864863E-003 +2.311292822023282E-002
-1.519228191050175E-002 +1.176756243366124E-002 -1.004032761095328E-002
+3.862580024089349E-003 +7.316807060029095E-003 -9.946539261532180E-003
+2.200317389103907E-003 -5.376037919209120E-003 -6.073667167559741E-003
-1.389116965596202E-002 +5.578701375153159E-003 +1.344150405991554E-002
+1.256540596390257E-003 +1.190772283810250E-002 +9.137216820353559E-003
-1.077628506473400E-002 -9.315210278863393E-004 -8.034044607590071E-003
+7.542115219964889E-003 +5.906007991037640E-003 +6.057440634821796E-003
-2.734923015452353E-003 +1.943046045604219E-002 +2.950392758456270E-002
-1.332102226460286E-002 +8.995110891045115E-004 +1.171519805925922E-002
-6.665585305523543E-003 -2.212169733647935E-003 -2.416565779917534E-003
-2.811249800473403E-003 +1.243352608306678E-002 -4.402072322397274E-003
+3.621638605216203E-003 +1.069299109328634E-002 -9.644447715905832E-003
+1.702317175241690E-002 -1.548278634672654E-002 +1.619302444560199E-002
-9.055094752127294E-003 +1.274015483854617E-002 -1.392406186779408E-003
-1.858940706099177E-002 +2.138038845417224E-002 +1.068559179857923E-002
-1.356664297530102E-002 +3.101807773172032E-003 -1.447423451648247E-002
-7.548794970812000E-003 -1.201944643529148E-002 -9.139589576684188E-003
-2.258004449770037E-003 +1.003149695448572E-002 -4.354908430629906E-003
+1.470817432221513E-002 -7.295269110361098E-003 -2.352588133327387E-002
+1.353264789769430E-002 -1.746347436690350E-003 -2.794738260070251E-003
-1.769768349861427E-002 +4.958137709532900E-003 -7.498995847967047E-004
+3.730705222848161E-003 +2.223070848790303E-003 -1.801823791496031E-002
-3.550718009464171E-003 +3.674388696262701E-005 -1.475370465927844E-003
+1.107602446591331E-002 -1.165033668141111E-002 +5.617764670709859E-004
-1.249038303132062E-002 +9.389193609017616E-003 +2.767948447775128E-003
+1.751232992846037E-002 +1.059688326697959E-003 -6.611138444112272E-004
+1.544980943473837E-002 +9.862163383016608E-003 +2.737826694384981E-003
+3.386011635903895E-004 +2.800360247096152E-002 -2.857831511460168E-002
-1.923810465891571E-002 -8.383238949922529E-003 -4.651871925745842E-004
+1.190073054804720E-002 -1.674762806990948E-002 -1.376990934967156E-002
-2.195345411923257E-002 +3.898019822249544E-003 +5.315830392248002E-004
-1.645227793529571E-002 -4.833167521726718E-003 +2.810804148726084E-003
+3.228626627423630E-003 +1.168394170550850E-002 -1.733135632313720E-002
-5.543007082447561E-003 -6.474289018691635E-003 +3.905753040340298E-003
-1.178303634903415E-003 -3.609755796238252E-003 +6.290348674178204E-003
-3.699560358680130E-003 +1.639560243939202E-002 -9.714380716027036E-003
-4.653726423752526E-003 -1.799900890509242E-002 +6.708782526972320E-003
+6.149501231435185E-003 -9.116248624872040E-003 -6.336393950996933E-003
-2.462012760321574E-003 -1.514396542046125E-002 -4.420271055586381E-003
+1.493386875400140E-002 +3.041029958864071E-003 -1.111653905920338E-002
+4.062035991739960E-003 -8.560163098477009E-003 -6.261748774283547E-003
+4.004599998667615E-003 -1.263034220124480E-002 +3.215260912665909E-003
-9.129584680523708E-003 -1.245848954679582E-002 +1.183016956206218E-004
+1.635583912868174E-002 -1.347601517259108E-002 -8.331557472216334E-004
+2.754520029471518E-003 -1.970154204075162E-002 -7.280294865724947E-003
+1.454226278128464E-002 -5.694596873745611E-003 +1.782185444224936E-002
-5.195855927732061E-003 +6.827293126513563E-003 +3.526902941210875E-003
-2.763196055432586E-002 +1.502127084646990E-002 +2.324621932160910E-002
+8.227954907821716E-003 +1.579163026372684E-002 -1.898461545362433E-002
+1.289479041819790E-002 +1.710157430848367E-002 +1.116976279640353E-003
+1.706522756129394E-002 -2.139349937701714E-002 -8.595366036365411E-003
-4.646773953022027E-003 -1.154144171873526E-002 +1.299013035074878E-003
-5.644509675464159E-004 -6.592084261665158E-003 -1.281213257448897E-002
+6.367517549670717E-003 +1.756795309818024E-002 -1.305034476313656E-002
-2.045260723852930E-003 -2.040149900803311E-002 -3.087835805033604E-002
-2.477828093306604E-003 +5.041289925636205E-003 -6.274410923430200E-003
-9.362426163912884E-004 -6.416437034670488E-003 -5.771025995465986E-003
-1.904500583926952E-002 -1.764654769607199E-002 +4.277664334777381E-003
-2.740382831982233E-003 -9.781893335352287E-003 -7.045167586463377E-003
-1.264845049576483E-002 -1.260991379674237E-002 -1.296162314721248E-002
+8.942550044713230E-003 -1.150437196996054E-002 -1.170683584439128E-002
-2.868005165973974E-003 +1.097098942309503E-002 +4.669439513703382E-003
-4.088038927805075E-003 +6.231221028540865E-003 +4.532325745875518E-003
+5.203124038010204E-003 -9.341985391483454E-003 +2.744459933264147E-002
-6.673536726371334E-003 +8.889579085426166E-003 +5.149951269921431E-003
+7.220905592491654E-003 -1.488793904577297E-002 +2.673058026611061E-002
-2.034200342699859E-002 +1.811199535140592E-002 +2.808116195268341E-003
-4.027301762611877E-003 +7.526808382212775E-003 -9.851473483617782E-004
+1.520569675136824E-003 +6.063095678634561E-003 -1.109504524414130E-002
-1.061561277199993E-002 +9.407528144959612E-003 -2.301594902851971E-003
-2.005941327198575E-002 -2.930235388616325E-002 -1.423495298836358E-002
+1.617547830794381E-003 +1.060244463381733E-002 -2.708371187320554E-002
-5.168914909877440E-003 +9.539984398033533E-004 -1.696444016285230E-002
+6.153661588850800E-003 -9.163564514565537E-003 -1.322369531411869E-002
+5.155117405472392E-003 -5.897572164372763E-003 -2.715878260865062E-003
+1.047157516470328E-003 +1.411920059953455E-002 +6.647936001048555E-003
+6.333021261566098E-003 -1.894619647107575E-003 -7.802882620423279E-003
+1.551199910021531E-003 +1.504407727931432E-002 -2.584149179049935E-003
+1.064610875281642E-002 -1.059205251994403E-002 -9.581149311701851E-003
+8.004056154727933E-003 -1.036624818592417E-002 +7.503501082967918E-003
-3.132419478879061E-003 +7.692394885557262E-003 -5.906507949073298E-003
-9.755062021167923E-003 +2.352022847061883E-003 +1.617014791444679E-002
-5.205588197942148E-003 +7.082814901676932E-003 -2.667031472896986E-002
-9.041231489420961E-004 -3.926704626320088E-003 -1.389926774708764E-002
-1.770304835365732E-002 -1.014553366447985E-003 -1.606039784976497E-003
+1.377991876525837E-004 -8.833069937370108E-003 +8.224314244803661E-004
+5.918808073724220E-003 -1.593016964403964E-003 -8.443297706430587E-003
-1.586582653792541E-002 +6.157390390761782E-003 -2.087904378257898E-002
-1.092546605727880E-002 -4.038938785027818E-004 -1.357102062432861E-002
+3.820417335443149E-003 -3.862781010870187E-003 +1.568702753111317E-002
+1.272407065373844E-002 +1.151429894395309E-002 -2.011613816235881E-002
+7.473865813499227E-003 +7.708481992602700E-003 -1.251276437189707E-002
+1.430408654267216E-003 +2.309390911178340E-004 +2.036989327742384E-002
+7.742550208642175E-003 +7.547702218782089E-003 +1.593045921903881E-004
-2.411268152908692E-002 -1.762242302600880E-004 +2.513734435127401E-002
-1.009006643370374E-002 +4.543324793974288E-003 +2.548734797172336E-002
-5.192625244346378E-003 -8.415109562797807E-003 -2.780177276065499E-002
-4.333545442755433E-004 -3.259777528836372E-003 +3.083465335962054E-003
+9.421786828590680E-003 +7.877078520388122E-003 -1.804407332734874E-002
-8.613210225900557E-003 +7.304151632184929E-003 -9.995677617717982E-003
-9.208881041233205E-003 +1.428932984767800E-002 -2.976326439489736E-002
+1.162299700057615E-003 -2.356984300285599E-002 -7.116751483044301E-003
-3.534847230413629E-003 +1.004224409546574E-002 -9.080818828033528E-003
-2.091834021240929E-002 -5.697675656976528E-003 +8.064130596601953E-003
-1.620156370582202E-002 +8.163266556069438E-003 -1.029096159338633E-002
+2.040821100381248E-002 +2.506555470657902E-003 +1.323787252385745E-002
-1.061877451520384E-002 -1.685322885881653E-002 -1.476495621371488E-002
+1.670172664119901E-002 -4.093712955230454E-003 -9.285199077504530E-003
+7.948402772360336E-003 +3.783265645732304E-003 +8.043379388299675E-003
-1.270343003472470E-002 +7.088199362030942E-004 -6.706196237311038E-003
-1.163889191894836E-002 +3.453062202913754E-003 -1.055469328111011E-002
-1.064122497449037E-002 -1.387900530616497E-002 -2.910253788727605E-002
+2.751451800169344E-002 +9.416571837483078E-004 -6.974160063430142E-003
+6.290798413306110E-003 -6.863630175747469E-003 +7.462732789296713E-004
+6.234339242791158E-003 -5.856075186840468E-003 +1.322854568119953E-002
-6.978459820286506E-003 -3.218398302714414E-002 +1.740101675447094E-002
+1.754700855717591E-002 -4.983878372263984E-003 -2.325543921972118E-002
+2.983557719387315E-003 +3.597780391755439E-003 +3.998066033441564E-003
-2.125533042882738E-004 -1.357143894234401E-002 +7.047277431733465E-003
+5.588799741425611E-003 -2.007220304918968E-002 +2.624712535301123E-002
-5.643007812539516E-003 -1.114104901012646E-002 -8.039724136775717E-003
+1.903580092652829E-003 +1.006885186436983E-004 -3.818630677313047E-003
+1.032637799686255E-002 +6.791653210955350E-003 -8.802184263905664E-003
+1.374241549390033E-002 +4.649956628661552E-003 +1.883794816630017E-002
+8.770974653472910E-003 +1.070895122874029E-002 +3.763313402656514E-003
+8.852399178069537E-003 +1.544105236755367E-002 -1.603501714393629E-003
-9.448874152147868E-003 +3.478861008958362E-003 -2.190950374162701E-003

# step        1
#          mux                     muy                     muz         
-4.414916487182586E-001 -9.556470185972808E-002 -4.428710175135732E-001
+8.597024837508283E-002 -1.646610264371410E-001 -2.883751261287383E-001
+1.009665552226501E-002 +1.539224663701218E-002 +2.217237888811723E-002
-1.848585338593256E-001 -3.609487010972951E-003 -5.129964660853716E-001
-1.205988982943047E-001 +1.825754363530420E-001 -9.325949958055564E-002
+2.261242501619154E-001 +1.619788973913857E-001 +8.189828368422905E-003
-1.606713928013239E-002 +2.395678940608077E-001 -2.774351138527449E-001
+2.713713055907419E-001 +2.274467533905571E-002 +1.834437418224959E-001
+3.800298648274600E-001 -2.288726746583016E-001 +5.236689207499245E-002
+2.429258556272346E-001 +3.054437540542287E-001 +2.040156692438684E-001
-6.081821798401400E-004 -1.784602527009340E-001 +2.880904971408642E-002
-6.169433238932606E-002 -4.289226889852165E-002 +1.424919426395062E-001
-6.124310636037799E-001 +2.089265301042746E-001 +3.638364401630009E-001
+5.335922662987805E-002 -1.732739708692509E-001 -2.439029772957732E-001
+3.472239126019482E-002 +9.627731992151783E-002 +7.005919686342456E-002
+1.821066932986309E-001 +9.551821822610200E-002 -3.285684692335754E-001
-7.512903075612232E-002 +4.342130069313591E-001 -3.975960077251560E-001
-2.759305443838694E-001 +1.251608205970736E-001 +1.574009242105527E-001
-7.674907223004908E-002 +9.347255778391649E-002 -7.423256994912553E-002
+2.953264464625815E-002 +4.354415407937845E-002 +1.910748721053288E-001
+1.266973704818928E-001 +3.148288388120566E-001 -2.166924890181152E-001
+1.628209017086183E-001 -1.993339871985241E-001 +3.602341906702367E-001
+1.139858289075866E-001 -2.662201009607827E-001 +6.530954984872391E-002
+3.057119610029009E-001 +5.144114194115475E-003 -1.913489702308515E-001
-1.008225841242475E-001 -2.546054482728683E-001 -5.073534712553353E-001
+2.180502071522789E-001 -4.226585112316944E-002 -1.419352263706597E-001
+1.438632115050997E-001 +2.604428396268481E-001 -1.208335630129462E-001
-2.487274107089177E-001 +1.955116789757905E-001 -1.602265118281458E-001
+2.129644773363896E-002 +7.747838630351998E-002 -2.457695519165229E-001
+2.576360420186877E-001 +6.557338084664346E-002 -1.533557074581227E-001
-6.320034195350967E-002 +1.929394403300922E-001 -1.987406141144682E-001
-4.081914404288334E-002 -3.256302251106413E-002 -3.907059558912029E-002
-1.584301390411138E-001 +3.862014591368377E-001 +1.019227159672482E-001
-9.003252725000627E-002 -2.059779121961656E-001 -8.306614917984692E-002
+1.634024213071876E-001 -3.773955234808105E-001 +1.814215436701336E-002
+1.955702107051328E-001 +1.089175361743470E-001 -2.290709885575252E-001
+1.274280264714975E-001 +8.093927527086445E-002 -1.333098740403150E-001
+3.937736158154037E-001 -3.413554461408098E-002 -1.556454845657528E-001
+7.491678773705222E-002 -4.947198354740199E-001 -2.363410990275954E-001
-3.292797431500863E-002 -5.792873309524490E-002 -2.142599567876551E-001
+2.276516236244280E-001 +1.835438174118608E-001 -2.800905574930897E-003
-5.568797355806327E-002 -2.115818226142736E-001 -3.132043079685517E-001
-8.740593625356907E-002 +2.773323597262951E-001 -4.545784517973155E-002
+2.165168162302777E-001 +3.152078193233033E-003 -1.531500898937241E-001
-1.810330460442965E-002 -3.810787831701180E-001 -3.589918816706547E-001
-5.487225765399249E-002 -5.578260955828039E-002 -1.854699711198174E-002
-2.765682999255142E-001 -9.391486742649920E-002 -2.310527537251315E-001
-1.141994982381485E-001 -1.714178183054681E-002 -3.062288755814942E-001
+2.864196193269408E-001 -1.092145344617086E-001 -1.690457179611767E-002
+8.259562572942428E-002 +3.259891978462523E-001 +1.925888447293776E-001
+2.214585379879887E-002 +2.244126171188472E-001 -2.323876398997520E-001
+5.742997480470934E-002 -1.678913636852007E-002 -3.074441236518208E-002
-3.045383498953151E-001 -6.250783588191476E-001 +6.982587081477542E-003
+1.372025757191696E-001 -2.397205845447965E-001 -3.161540894950060E-002
+3.669207944793566E-002 -7.974062489281021E-002 +1.679615090931729E-001
+5.043005812910781E-002 -1.387691179959081E-001 +2.434555537777158E-001
-6.142003995925831E-002 +1.919641105913262E-001 +2.574353371342789E-001
-1.997067797064304E-001 -3.995913796448628E-001 -9.837429215655209E-002
-5.445749946488786E-001 +4.914962534528931E-002 -8.920557687649330E-002
+2.351763593052633E-001 +5.364793852743415E-002 -1.098010192156687E-001
-1.146904396656625E-002 -1.683138328068949E-001 +2.945539697542580E-001
-1.703301702703748E-001 -9.493666052876137E-002 -2.443920708803318E-002
-9.062241717635214E-003 +4.151530272329407E-002 -1.602907856728239E-001
+1.210026791853011E-001 +1.111982385340571E-001 -1.495079078199240E-001
+1.366676319191249E-001 -3.820682790271213E-002 +2.088518723464284E-001
-9.656832360511503E-002 -2.986743243346742E-001 -8.354030311094893E-002
-5.448956167044063E-002 -3.571515620470114E-002 -3.086057285943565E-002
-1.972179572934342E-001 -3.846751299610072E-002 +1.620210597361836E-002
-1.402542008828437E-001 -1.454999444921697E-001 +1.200335766121083E-002
+7.948484420627899E-002 -2.134509198365330E-001 -1.431601354590518E-001
+4.824724730479185E-001 -3.787051789557431E-002 +2.347817688171716E-002
-2.773580488734810E-001 -5.675489232218672E-001 +1.318356947817879E-001
-3.205312895074207E-001 -3.098814520177093E-002 -8.219446802947902E-002
-5.559512212359157E-002 -3.011277229381483E-001 -1.089459179449851E-001
+8.092161078354433E-002 +5.978368791735118E-002 +7.281174558762192E-002
+2.922847008733923E-002 +2.724907447014861E-001 -2.683764755334316E-001
+1.154180052306352E-001 -1.423971574171849E-001 -4.199669541205993E-001
-1.579593684025949E-001 +1.882819918987053E-001 +2.881440222428534E-002
-4.325037210503778E-001 -7.503819143269737E-002 -1.077638072017575E-001
-1.390898166813613E-001 +1.873714973650636E-001 -3.745913992870569E-001
-3.453867125924601E-001 -1.529916736655257E-001 -2.681681704939635E-001
-2.736304426630131E-001 -3.433507701311945E-002 +1.696112408214144E-002
-1.208634100430560E-001 -1.430613106801545E-001 +1.339407377752059E-001
-9.905111539002684E-002 -2.574233739827258E-002 +1.658417293457456E-001
+2.699359507323057E-002 +8.290960437433774E-002 -1.249248909218095E-001
-1.658877380782580E-001 +3.582415385133605E-001 -1.026319381904837E-001
-1.621294802636699E-002 -1.868213370263976E-001 -4.381934304327664E-002
+2.590627312923471E-002 -2.075859548533998E-002 -1.758918008256377E-001
+2.503761723822174E-001 +1.331339616639708E-001 -3.416921239792299E-001
+1.509456607900914E-001 +4.334912541502311E-002 -1.188986777075036E-001
+9.840504473157032E-002 -2.908363239809225E-001 -2.023894398237417E-001
+2.086505053738957E-001 -1.604460606740391E-002 -2.318528327184402E-002
-2.929393800347431E-002 +2.664670008108704E-001 -4.475399106889860E-001
+4.088329448648134E-002 -2.926680907200007E-001 -1.459552341177041E-001
-2.052777917835332E-001 +1.558235067003184E-002 -2.040791352794944E-001
-2.520967272643492E-001 -2.351466653889252E-001 -2.636673402526250E-001
+5.945674225309526E-002 -3.423885805945034E-002 +1.977604622721118E-001
+6.878568351188827E-002 -2.756073493248775E-001 -4.094432048856307E-001
-2.412382799910565E-002 +8.321381618379579E-002 +1.042641652458754E-001
-2.259786018700862E-001 -1.273862039826960E-002 -2.061610894290523E-001
-4.200373508817504E-002 -1.367229780512168E-001 +3.514373735315530E-001
-1.453989875940325E-001 +5.452198269320901E-002 +9.319985230899781E-002
+1.318450216564992E-001 -3.616793520466328E-001 -1.446281450657529E-001
+1.319428757959167E-001 -2.077549615642709E-002 -3.457631316552388E-002
+4.478804195576863E-002 +2.672556202355406E-001 -1.362090761533654E-001
-4.218894126845040E-002 -1.002962499538719E-001 -1.788960674438717E-001
+3.659848788089943E-001 +4.765842986931711E-002 +9.785466138814446E-002
+2.708082877156919E-001 -1.938707335805168E-001 -3.163755531645138E-001
+1.745556021988294E-001 +1.481419841630561E-002 -3.081172883481760E-001
-1.534699498847750E-001 +1.319204995591414E-001 -2.085620155903072E-002
-8.004662177158058E-002 -3.038573224413221E-001 -1.496232798859306E-001
+2.224144461393130E-001 +1.248443585929254E-001 +2.846594128092902E-001
-3.433181122866799E-002 +2.893355930624421E-001 +6.511991031702541E-002
+1.861404019473604E-001 -2.103745779060651E-001 -9.595840471091746E-002
+1.943096335591102E-001 -1.012182519401602E-001 -4.446931946550661E-002
+1.557850955600651E-002 -7.409269605402011E-002 +8.441231226020536E-002
-4.584470312948642E-002 +2.014920028165204E-001 +1.373172207998996E-001
+1.815162173278952E-002 +3.008291782640373E-001 +5.000201624338442E-003
+1.066380106402547E-001 -1.301602560871314E-001 -8.282325068797043E-002
+1.949850474464293E-001 -1.006885625180287E-001 -2.156871091492271E-001
+9.608504681352607E-002 +6.013017872618159E-002 +1.620556559235780E-001
+2.414326840466339E-001 +4.238305280978472E-002 -1.178107836933012E-001
-1.568340508699434E-001 -2.576078936882103E-002 -3.355561580260547E-002
+1.819835803802373E-002 +1.665429157629528E-001 -1.845075158530464E-002
+7.296739109064584E-002 +5.421587643066974E-001 +1.229132277436366E-001
+1.024344429860507E-002 +4.009140135748702E-002 -1.961479695714277E-001
+5.372185006471306E-002 +4.645940868507697E-002 +1.470181401663482E-001
-9.671644260444159E-002 +4.477370832707755E-001 -1.211755518846753E-001
+2.323691957016321E-002 -6.631800135130470E-001 -3.396687498724143E-002
+2.961667636942140E-002 +1.716541027073966E-001 +3.256365832952130E-002
-1.575210135016295E-002 +1.803219721286322E-001 +1.833803825081610E-001
-3.687575748482040E-002 +4.682077267459073E-002 -2.876166671114440E-001
-9.284240302929993E-002 -5.198359674090452E-002 -1.452619640630802E-001
-2.847833049659343E-001 +1.838332958174800E-001 -2.783784129194559E-001
+4.940990708812567E-002 -1.408899111974941E-001 +1.326694586664377E-001
-1.520894079159895E-001 +2.750344588483511E-001 -1.384795781976683E-001
+1.936120662784096E-001 +3.692402134845897E-001 -3.438296008258251E-002
-1.192067404539563E-001 -2.378721703207679E-001 -2.136080740338359E-001
-2.560250649411932E-001 -4.312178339587747E-002 -2.233238681024096E-001
+6.102343303699844E-002 +4.235992281801202E-002 +3.504597353801739E-002
+1.882600014161203E-001 +3.500272430516113E-001 -1.913650080955506E-001
+7.130302783812358E-002 +8.860171763297058E-002 +6.675081439996322E-002
+8.133199929332549E-002 +1.441414403183998E-001 +1.704314429455434E-001
+9.384105724633555E-002 -1.721049213807492E-001 -2.824044536822077E-001
-4.591495989612595E-002 -1.008975338224030E-002 -7.442368953099361E-002
-1.355099977824943E-001 +1.623950602492030E-001 -2.490824577464925E-001
+1.019167331780397E-001 -2.015132191529584E-001 -4.252341284503004E-002
+2.797910192201715E-001 +2.219209213019197E-001 -5.134640002641073E-002
-2.261882255699884E-001 -5.153503709863153E-002 -1.284584541740674E-001
-1.893902933883917E-002 -2.135164507490618E-001 -5.086476030711224E-003
+7.199511386563337E-002 +6.159990703822943E-004 +3.381291946968444E-002
+1.351860982024242E-001 -2.242944232525666E-001 +3.834662290497293E-002
-3.488116060047601E-001 -6.835411298256233E-003 -5.365213450931745E-002
-1.148761691082077E-001 +1.401194949997475E-001 -1.088886065234152E-001
+1.727662233584251E-001 -9.691619835752954E-002 -1.193829961551787E-001
+1.639325907452534E-002 +7.454953193632870E-002 +9.428807980256432E-002
+2.299394407394328E-001 +6.900404144379556E-002 +3.153107080289727E-001
+4.179625793172404E-001 +1.205490668968040E-001 -2.140947353190123E-001
+1.753560563857959E-001 -9.853037184649410E-002 -8.229339891553099E-002
-1.621888173594365E-001 -3.036364711137522E-001 +1.110739258523085E-001
+4.758214713439825E-002 -5.090473861653630E-002 +1.398910249158613E-001
-2.770659928986255E-002 +2.816165203665821E-001 -2.763172148100811E-001
-4.227395432412846E-002 +1.860040674613730E-002 -1.798744672594901E-003
+2.837206050876043E-002 -2.224667453586440E-001 -1.370078646067427E-001
-2.577447916684752E-001 +2.811683600404078E-001 -2.423639042989701E-001
-1.942399237637813E-001 -1.060514662653147E-001 -3.685920870316875E-001
+3.225408680324662E-001 -3.930797810795688E-001 -8.225893094671086E-002
+2.310238382673341E-002 +4.192849934268645E-001 +1.206035189679113E-001
-1.534113022607229E-001 -1.699128437840571E-001 -1.644872830426375E-001
+3.924998620567408E-001 -1.553432734902616E-001 -1.592248025712457E-001
+2.334655774544010E-001 +2.727204649967028E-001 -2.614436250419818E-001
+5.169603352930821E-001 +1.169957404031392E-001 -1.789652737594266E-001
+5.598935290436043E-002 +1.720288171953728E-001 +3.217057985228962E-001
-5.767850102530186E-002 -1.773784418197178E-001 -1.945549906130370E-001
+6.758319756959415E-002 -7.196913868833212E-002 -5.444861931384302E-002
+2.803328856339652E-002 -3.705213199780782E-001 -1.790791804637051E-001
-3.795819743718848E-002 +6.513972439503295E-001 -2.583936590651709E-001
+1.152089162062273E-001 +2.148580957722781E-001 -1.565785455785162E-001
+2.453734068863692E-001 +3.223612031548607E-001 +1.787752022028284E-002
-2.430175452934597E-001 -6.137983868660883E-002 +3.302811221110782E-001
-1.476121434945495E-001 +1.757579158642811E-001 -1.843741672815253E-001
+1.708740728751862E-001 -3.417978884336838E-002 -2.209045796719867E-001
-2.734848413979152E-001 -2.103986016943745E-001 -5.333082880072226E-002
-9.129395898587671E-002 -4.046547436662575E-001 -1.027664401406107E-001
+2.783214677924851E-003 +2.798666464487101E-001 -1.159457530513821E-001
-1.772205748209571E-001 -3.464029921240008E-001 -2.371768526425050E-001
-1.142395899323273E-001 +3.029254965421171E-001 -1.428429645256686E-001
-2.413681757017522E-001 -3.524499463708159E-001 +8.522785620039686E-003
+2.627977872202135E-001 +1.821008883353292E-001 -1.520736770855083E-001
-1.465833367901516E-001 +7.840124989056634E-003 -1.498433120515827E-001
+1.058596859339462E-001 +8.536251520998478E-002 -2.585684351399941E-001
-5.858059922449239E-002 -6.505141616239803E-002 -1.908705377005846E-001
+1.617845102428813E-001 +3.294487602884667E-001 -5.730543580608761E-002
+4.132416383836480E-002 +1.645756568376499E-001 -1.636333740768745E-001
-1.193974515312840E-001 +2.639428686294090E-001 +1.611109831320502E-001
+8.835471564995349E-002 +1.811069288501121E-001 -4.011688611972339E-002
-1.984714935283091E-001 -4.340200055907802E-001 +8.350205698184070E-002
+1.196961899984880E-002 +2.083754543214343E-001 +1.922957616754632E-001
-3.623757888679853E-001 -1.078974096168834E-001 -5.581726688281157E-002
-1.316197858105342E-001 +5.439987452626806E-002 +3.378594088953547E-001
-1.100419596769123E-001 +4.248839059964818E-002 -6.992376045434716E-002
-1.603569474602004E-001 -3.588858576514241E-001 -2.595630106399106E-001
+7.971681024564815E-002 -3.233502103552510E-001 +2.353338496940137E-001
-1.410572394095356E-001 +4.425468945951191E-002 -1.558867538726903E-001
-2.340610893528783E-001 -2.248897688563588E-001 -1.904019155822968E-001
-1.607986834850783E-001 -3.741793517457638E-001 -6.889888564866208E-002
-6.024282735379391E-002 +1.352641535826760E-002 -1.728473896545636E-001
+1.438683523607737E-001 +1.576052263332641E-001 -1.624770062616038E-001
+2.808809052319213E-002 +1.854720122865336E-001 -2.455679600381724E-003
-6.258417749503475E-002 -6.081921019527890E-002 +1.658140895889749E-001
-3.501820062523894E-001 -1.684989184575907E-002 -2.214841566380404E-001
+1.343418213569908E-001 -4.025826368931672E-001 -2.610852974591703E-001
-2.725752060923435E-001 -8.091458744787640E-002 +1.162502443897436E-001
+2.197298882913111E-002 +1.804433370197974E-001 -1.085013763275188E-001
-1.667456873339737E-001 +2.125584832623778E-001 -1.166496696644316E-002
+7.209774189042710E-002 -1.463209618216130E-002 +1.311862412460258E-001
-2.920906826494395E-001 -1.601722480232482E-002 -9.289072851514668E-002
-2.248385061956960E-001 +1.022247686316083E-001 +5.320948182439356E-002
-1.062246657506625E-001 +1.947839386065959E-001 +8.057296533717202E-002
+1.270908982468440E-001 +2.704260842103304E-001 +4.538265704199099E-001
+1.506767671810819E-001 -5.877660695465028E-002 -2.789346299310855E-001
+6.152953520940523E-002 +5.011035702496758E-002 +5.018121243559914E-002
+1.647554681557915E-001 -5.072432971876374E-002 +2.981219462579414E-003
-1.128036962819651E-001 +1.024596318869146E-002 -2.049289810451295E-001
+2.675076337734618E-001 +4.353655763273947E-002 -2.644279233322348E-001
-1.012903755116047E-001 +5.710704075993516E-002 -4.030278641568744E-001
-1.230662796928938E-001 +2.188591238777830E-001 -3.202905725965992E-001
-1.590269309802070E-001 -1.563264633779945E-001 +1.749866005537920E-002
-2.325014167861838E-001 -2.066454935274629E-001 +3.439784840126203E-002
-6.092524328629041E-002 +2.007212042050293E-001 -2.911024752791850E-001
-1.454065842467856E-001 +1.480253744145446E-001 -5.367352911882405E-001
+5.290256877759869E-002 +9.252802322288974E-002 -1.395544826108201E-001
-4.019073650264298E-001 -1.192887575685333E-001 -2.822280854857832E-001
+7.444901708215698E-002 -2.622281751667591E-001 -2.999096059855287E-001
+1.419882211507907E-001 +2.379524970421555E-002 -2.306584131705054E-001
-6.298114212358154E-002 -1.735897553201143E-001 +2.452612404047318E-001
+1.516747632534746E-001 -1.898478972834856E-001 +1.012040089345971E-001
-8.868179758893132E-004 +1.968498979979732E-001 +2.034675078260839E-001
-1.499084997176346E-001 -6.483675931769199E-002 -1.439647547836577E-001
+7.534227641416238E-002 +1.408282117955806E-001 -5.352756777140682E-002
+1.606249602114562E-002 +1.953140626192043E-001 +1.046481407213741E-001
+2.265413690952423E-001 -3.930316282159763E-001 +1.662875662349976E-001
-5.049520300609767E-004 -9.293517891809664E-004 -3.216233064538122E-002
-1.459451443916232E-001 -8.448312880670955E-002 +1.683389387339250E-001
-3.645365477647365E-002 +1.603996768160210E-001 +3.459025669376790E-001
-4.833400807780812E-002 +7.430700588403347E-002 +3.019579631847139E-001
+7.354453591452142E-003 +1.020055799895767E-002 +3.131151300686687E-002
+3.466999010137853E-001 +1.294879969003902E-001 -9.286799874406948E-002
+5.519741296663342E-001 +2.581639540084013E-001 +2.593141924777073E-001
+2.456253680093933E-002 +1.048300646824223E-002 +3.507896640940533E-002
+3.570525218413426E-001 +2.645837396806945E-002 -4.440173866176171E-002
-5.183825410154506E-003 -2.112906483126073E-001 -2.777705342844594E-002
-1.983002371518237E-001 +1.470872931326626E-001 -5.497755620714686E-002
-1.390520353720606E-001 -5.435612179061745E-002 -1.981464009130745E-001
+2.529421926599191E-001 +9.813499468716554E-002 +1.370949979721081E-001
+5.149741327303160E-002 -2.138211108067165E-001 -6.582331620157188E-002
-5.146625497217470E-003 +1.099914359294332E-002 +2.256348041418824E-002
-7.586404682120434E-003 +8.345889111029630E-003 +9.996441958819786E-003
-8.735934438185459E-003 +1.055434826573543E-003 +1.246643627159353E-002
+1.136252862034111E-002 +5.837911512128017E-003 -1.312993784157382E-002
-2.752688738830896E-002 -5.209444466922567E-003 +1.299811272186267E-002
-6.313100813458090E-003 -8.711524322311461E-003 +5.823285646944193E-003
+8.172350824452531E-003 +5.646422783918640E-003 -5.062718425650209E-003
+2.193739075942007E-002 -4.918340781226253E-003 -3.791470685156438E-003
+6.002813909190508E-003 -1.468241314075663E-002 -5.810538469424430E-003
+2.759734885200602E-003 +1.041330100888894E-002 -6.740526296017664E-003
-1.061470843675655E-002 +6.270012485796428E-003 +9.305128577542111E-003
-9.830482919291873E-003 -8.067944184232753E-003 -1.671595527594134E-002
-1.883908902281979E-003 +1.036270048378189E-002 +3.248239561986867E-002
+3.746849620759979E-003 +4.870819106474190E-003 -4.097381296427533E-003
+1.534316476958335E-003 -3.726452133205025E-003 -4.813748209769636E-003
-7.456736021728977E-004 +3.526971976938624E-003 -1.736889037096667E-002
-3.516896532259073E-003 +3.664375080042850E-003 +1.185289953440637E-003
-6.987312287599749E-003 +1.880578726359771E-003 +5.993420060019098E-003
-1.606544221490633E-002 -4.830416998204531E-003 +5.572872843847811E-003
-1.581406763434975E-003 -6.641487261714739E-003 +1.111439073287033E-002
-1.664360793098786E-002 -2.615750401346233E-005 -6.491298938524813E-003
-4.739688104381110E-004 +5.450987022949209E-003 -1.418260828751040E-002
+1.631682285838774E-002 +5.554584808028733E-004 -1.624680492254031E-002
+5.826067098577422E-003 -5.428245270266077E-003 -1.480091510329031E-002
-2.017028521072778E-002 +2.663824951808764E-002 +1.100679913009895E-002
-6.301984367246513E-003 -1.927538661831033E-003 +8.337870113211694E-003
+1.173759398769078E-002 -4.661874517275919E-003 -2.150889357014741E-002
+9.768334163063167E-003 -2.835760318452984E-004 +3.615418963501145E-003
-1.406911458605808E-003 -1.521043081782777E-002 +1.366798773088835E-002
+1.800715239078100E-003 +7.652098006940393E-003 +4.224757787209341E-003
-8.071968211293527E-003 -2.688584467629666E-003 -1.073644209967195E-002
-1.052289260682432E-002 +1.144847766092179E-002 -5.123784692653051E-003
+1.542282412837031E-002 -2.520337743268623E-002 -1.701923351555576E-002
+3.578847239625192E-003 -2.926212667259771E-003 +8.214344819594965E-003
+8.148860301654608E-003 -1.596587512909282E-003 +3.406536867485653E-003
-7.733310719888312E-003 +1.382888149041744E-002 -9.371472256727572E-003
+1.291706489968933E-003 +8.194549131414510E-003 -1.220356305014769E-002
+3.766819438373920E-003 +3.460361050882153E-004 +1.481732473105489E-002
-6.279709486973113E-003 -1.082395383837995E-002 -3.993170215258614E-003
+3.148441134269148E-003 -3.618348475835252E-003 -3.332612415104722E-003
+3.215031067878627E-003 +1.768475368030721E-002 +1.219235482358514E-002
+2.163171339404269E-002 -1.142626723679076E-002 +9.050518058343031E-004
-3.561479308601426E-003 +1.262126550746416E-002 -8.707943197315887E-003
+2.440677356591499E-003 +2.149075673818654E-003 -1.118413309459792E-002
-1.878513751029280E-003 -6.802913825287249E-003 -2.818843270711117E-002
-1.589251260112091E-002 +1.707046776465318E-002 +5.796386722286970E-003
+6.146272118870220E-003 -5.226968712989325E-003 -3.717283009553011E-003
+1.848998034544028E-002 -1.075713606208584E-002 -4.481319437252425E-003
-9.209986763072758E-003 +4.150974494138087E-003 +3.436895022780131E-003
+8.598745841802907E-003 -1.844099976254399E-003 -1.099239279904797E-002
+1.194296546885944E-002 +2.141494612221354E-002 -5.184452866399370E-003
-5.857676758509587E-003 -9.328551681203523E-003 -8.195872539580418E-003
+8.236997126767445E-003 -9.350257515355898E-003 -7.097338006809756E-003
+1.149047040164518E-002 +4.851068743286487E-003 +1.711217494192064E-002
+2.073708030128764E-002 +1.406187239875285E-002 +1.450105945939252E-002
+9.211152655379266E-004 +6.647486030856214E-003 +6.061608442215175E-003
+1.806114322145833E-002 -1.528684675161563E-002 -1.902489326944373E-002
-2.366807618170101E-003 -3.557012912733906E-004 -8.861326099879084E-004
+4.020469491694615E-004 +1.350668016027782E-002 +7.858365089512499E-003
+1.197370555987769E-002 -1.464446694503343E-003 -1.281325998931799E-002
-2.899373175892518E-003 +1.436147632429071E-002 -4.806968237882628E-003
+4.646161861819981E-003 +6.670113657522390E-003 +1.557223797009932E-003
+1.636459076029780E-002 +2.524416523986483E-003 +2.535430071147710E-003
+1.683034925840276E-003 -5.203700654625209E-003 +2.316132164370737E-003
-2.829686915315293E-003 +2.104646214544433E-003 -1.288614887062464E-002
+5.063193775131977E-003 -9.038020191191525E-003 +5.166595008494580E-003
+1.137705255618558E-002 -1.039983516242374E-002 +5.211023730894396E-003
-5.100332936483491E-003 +1.989022751078187E-003 -2.972019160642427E-002
+1.616808401970437E-002 +1.258170521181748E-002 -1.107961528494580E-002
-5.016673189127791E-003 -2.834898687483730E-003 +2.591722175857715E-002
+8.297389791625248E-003 -1.415953962813405E-003 -4.288859370770719E-003
+5.005273574869296E-003 -7.260006135488216E-003 +1.219496514623802E-002
-1.170801213013410E-002 -7.280634349723694E-004 -2.045498674997120E-002
+7.545640903541419E-003 +1.304951322675379E-003 +1.683997178266157E-002
-2.148614281818935E-002 +2.218927249847030E-003 -1.252246314674557E-002
+2.939592723169903E-003 +6.071441053711644E-003 -1.378034291238196E-002
-1.376171531737782E-002 +4.710846056250186E-003 -2.891053032541067E-002
+6.931790731510017E-003 -8.943999037036148E-003 -1.589639363603202E-003
+1.097475838603978E-003 -5.088064237753135E-003 -5.718144413097623E-003
+1.592849938999303E-002 -1.752716024157043E-002 -1.313581494469686E-002
-1.354048357150964E-002 +6.896612406753669E-003 -1.441381029272793E-002
-6.986139200332167E-003 -1.084277264728626E-002 +4.502694477224572E-004
+4.045608501465573E-003 +5.278118906131116E-003 -1.924412433318920E-003
+1.732452785161908E-004 +3.522153877826084E-003 -1.548398402910019E-002
+1.333726255574210E-002 +5.888795420960033E-004 -1.866006410792588E-002
-5.971707053525494E-004 -1.288721520232733E-002 -8.564630646789874E-003
+1.002967710274992E-003 +2.551396022061305E-002 -6.670504852679521E-003
-1.690193249992294E-002 -3.966375449088013E-003 -2.554532812853420E-003
-1.092064974938839E-003 -4.249930494805238E-004 +8.024274916596503E-004
-3.866548729755263E-003 -7.020417712846528E-003 -2.862749817149939E-002
-1.772266751463970E-002 -8.951297452014424E-004 -2.055721417958768E-002
+1.314062386358961E-002 +1.074900771988075E-002 -1.502488405212392E-002
+1.463815769105352E-002 +2.075344512692626E-003 -1.970906131799225E-002
+1.408078418733054E-002 -1.468514130672697E-002 -2.186029833938956E-002
+1.473379341377193E-002 -7.418075998232889E-004 -8.588615547574294E-003
-2.607356770847213E-004 -6.284777189744837E-003 -1.196987107161856E-002
+3.781019961263843E-002 +1.829851433740448E-002 +1.501197223155159E-002
+9.353181809763664E-003 +2.584856202264773E-003 +4.206405372573821E-004
-3.057133834827259E-002 -7.650073020700953E-003 -1.606042106916977E-003
+1.120953133007710E-004 +8.575132737103915E-003 -1.677023072242269E-003
-1.480088387710449E-002 +1.216794178407651E-002 -2.990034986004058E-002
+1.473174693073677E-002 -5.433800292263390E-003 -6.101634175032735E-003
-1.957598553952714E-002 -1.627233909740461E-002 -3.888086317180234E-004
-4.077474128084861E-004 -6.883303862840022E-003 +5.621503505283759E-003
-6.449631550809346E-003 -4.675291229163970E-003 -5.136264157156198E-003
+1.053647016362280E-002 -1.533467106031005E-002 -1.912951433411643E-004
+1.090296748017163E-002 +8.420180056527442E-003 +8.657266069793680E-003
+6.168564117866360E-003 -4.044499657402386E-003 -1.875571617616789E-002
-4.000741968457068E-003 -3.086887768862397E-003 +1.542298722191346E-002
+1.844466703929589E-002 +8.364716546293007E-003 +1.011364711069494E-002
-2.391291512320648E-003 +5.462731228232485E-003 -8.732419865526128E-003
-8.828055974970783E-003 -7.080166754839168E-003 -5.753466644567244E-003
+6.957447112822422E-003 -3.684602703715778E-003 +6.522346690643969E-003
+1.118736817850885E-003 +5.354675183440709E-002 -7.908822953973823E-003
+7.854191034823576E-003 -2.092460916108160E-002 -1.956896979695048E-002
+1.032353563443378E-002 -1.964369914753228E-002 +8.291709441505641E-003
-4.135979273868454E-003 -1.851230429842068E-002 -2.468802687913388E-002
-3.873166644441495E-003 -2.160782958994965E-003 -1.418388606385071E-004
-1.294494052096485E-002 +1.738088320679928E-002 -1.167324005579521E-002
-3.174011205071939E-003 -1.312738704004347E-002 +6.676622140681728E-004
-2.170716354248556E-002 -1.127818722385907E-002 -2.376341487200130E-002
-3.091399905831810E-003 -2.513242192473624E-003 +1.535624546956044E-002
+1.345313113535275E-002 +1.138150801693824E-002 -1.243743260894763E-002
-1.224634875837478E-002 +1.984430057966240E-003 +8.435442707823792E-004
+3.199405809848730E-002 -7.185585260376571E-003 +6.379840337555409E-003
-2.772951611222214E-003 -1.636925752625920E-002 +8.951595862955367E-003
-3.328776962149072E-003 -3.747303327871010E-003 +1.106566510960360E-002
+2.478528054771835E-003 -3.080215897152230E-003 -2.315362591970693E-002
+1.818921391270547E-003 +8.601564396260237E-003 +2.280937776497364E-002
-1.490253079580706E-002 +1.148498535308610E-002 -1.013730665971041E-002
+3.552806670169013E-003 +7.650103603133298E-003 -9.589167884721382E-003
+2.397362859139119E-003 -5.190274291567739E-003 -6.279419360772211E-003
-1.353618422182210E-002 +5.467180752899555E-003 +1.358517007080345E-002
+1.106259333625052E-003 +1.216751371019681E-002 +9.340870128519727E-003
-1.062933177180504E-002 -1.318745033364077E-003 -8.577337991817631E-003
+7.208085214262888E-003 +5.929400800119861E-003 +6.003676241135811E-003
-2.809842235116941E-003 +1.928320648557682E-002 +2.942294535406956E-002
-1.332062240399833E-002 +9.388604423581022E-004 +1.144464216752208E-002
-6.813348561885599E-003 -2.780157023593285E-003 -2.355879937251668E-003
-2.554091669277836E-003 +1.284304850358301E-002 -4.394390746831885E-003
+3.528443161805107E-003 +1.071464159875882E-002 -9.618106116502647E-003
+1.700705241609721E-002 -1.501451299775947E-002 +1.649381315466030E-002
-8.750108454427025E-003 +1.271847499328134E-002 -1.030922459820000E-003
-1.880542907754429E-002 +2.190756426831291E-002 +1.083591578584870E-002
-1.332113753755607E-002 +3.295526157321385E-003 -1.398668730119870E-002
-7.845540412515856E-003 -1.217384081953616E-002 -9.589486246510555E-003
-3.098241684034513E-003 +9.903664484465254E-003 -4.336417577871243E-003
+1.477129412997664E-002 -7.270724216792775E-003 -2.327559154598347E-002
+1.361192086880343E-002 -1.661793890804048E-003 -2.793245065720831E-003
-1.759491345194732E-002 +4.932115400018707E-003 -6.946029775840957E-004
+3.612625502521175E-003 +2.303405885874443E-003 -1.763407775406263E-002
-3.231314187358912E-003 +9.489589250795662E-005 -1.575214587760475E-003
+1.076745562556401E-002 -1.170235065425355E-002 +5.892584970785496E-004
-1.243983965437367E-002 +9.508901079376306E-003 +2.968819727161398E-003
+1.751266645425995E-002 +1.147237964984025E-003 -7.370429320544440E-004
+1.525427591205982E-002 +9.835432141168035E-003 +2.631101509728900E-003
-1.009699808715664E-004 +2.805985325131369E-002 -2.848970576283649E-002
-1.968509862485160E-002 -8.253704425655033E-003 -4.503477439926811E-004
+1.217558535413987E-002 -1.652263532664291E-002 -1.360678422384929E-002
-2.193448906771671E-002 +3.659080673239942E-003 +3.844611768397147E-004
-1.579874899811379E-002 -4.669863840077913E-003 +3.183910439483739E-003
+3.228778254802128E-003 +1.218992679014684E-002 -1.710178338996313E-002
-5.573348279334844E-003 -6.676943394447764E-003 +4.021710867917498E-003
-9.547332320030263E-004 -3.624789924347650E-003 +6.003252313865206E-003
-3.633930563168061E-003 +1.641082632474426E-002 -9.729914100023381E-003
-4.497226373723520E-003 -1.814092832065416E-002 +6.725282967913642E-003
+6.315474936103425E-003 -9.016979151325577E-003 -7.051938166427880E-003
-2.463254322830875E-003 -1.502021842421147E-002 -4.668118161237418E-003
+1.488829653120798E-002 +3.471382972398624E-003 -1.163926861130487E-002
+4.112305346053610E-003 -8.540337295925193E-003 -6.198016624749600E-003
+3.764145819219586E-003 -1.258518755341528E-002 +3.449435076209412E-003
-8.933431900458458E-003 -1.229263480334107E-002 +5.212890224568322E-004
+1.657212669374679E-002 -1.326864488550281E-002 -8.004527680843639E-004
+2.786075480177263E-003 -1.989098668888558E-002 -7.379066151237525E-003
+1.437094136570043E-002 -5.935963684929651E-003 +1.828778791123985E-002
-5.171406393470387E-003 +7.158893285034921E-003 +3.349515612074070E-003
-2.761084394408694E-002 +1.484315805637037E-002 +2.357035635010978E-002
+8.481889657064142E-003 +1.538342613667314E-002 -1.897124627586406E-002
+1.327853409676702E-002 +1.688207083970328E-002 +9.717317156209844E-004
+1.695054435179641E-002 -2.134164422095120E-002 -8.507501331844084E-003
-4.934033963798124E-003 -1.141016026318581E-002 +1.504057509152026E-003
-9.667192023637144E-004 -6.834120775547551E-003 -1.238749523867478E-002
+5.793673379840784E-003 +1.710803873530822E-002 -1.264774087199113E-002
-2.547012416300783E-003 -1.992352357829432E-002 -3.091221592000547E-002
-2.553273847370036E-003 +5.282503674096727E-003 -5.859418162888276E-003
-6.228124388400550E-004 -6.527668719760541E-003 -5.552697921202971E-003
-1.899640439993966E-002 -1.748940468193872E-002 +4.098808925748398E-003
-2.573636992884111E-003 -9.848497347155262E-003 -7.135997325529703E-003
-1.220731144459454E-002 -1.254022366004017E-002 -1.290856170063799E-002
+8.939806089434709E-003 -1.177401868448202E-002 -1.174199542073223E-002
-2.782209289448043E-003 +1.140489015149116E-002 +4.967268153057726E-003
-4.288377162742029E-003 +6.184518494435885E-003 +4.511559271527720E-003
+5.319388076990986E-003 -9.408724025241438E-003 +2.715348094045971E-002
-6.907891173935594E-003 +8.579116231010722E-003 +5.080076389050260E-003
+7.259699550009110E-003 -1.493337160490960E-002 +2.666280364467257E-002
-2.024854652945013E-002 +1.845730287662702E-002 +3.300598102394281E-003
-4.588578183623017E-003 +7.820929314418107E-003 -7.494550944167329E-004
+1.498308595467579E-003 +6.076646625338427E-003 -1.082777895228793E-002
-1.100482257762289E-002 +9.457750070427750E-003 -2.460758271282495E-003
-1.999506812821449E-002 -2.945818780921968E-002 -1.446918517792231E-002
+1.401346263287801E-003 +1.023350167854206E-002 -2.676475907625387E-002
-5.617518594878007E-003 +1.491557401828247E-003 -1.690829962816531E-002
+5.900855041410240E-003 -9.166082571056208E-003 -1.306327021884055E-002
+4.874016802612828E-003 -6.284104039769106E-003 -2.947453559557715E-003
+8.335434700797974E-004 +1.456255656517292E-002 +6.668702070686691E-003
+6.264244792744023E-003 -1.897859113641023E-003 -7.845489801909774E-003
+1.476489082764240E-003 +1.503080978211261E-002 -2.257286881214761E-003
+1.167901439230345E-002 -1.092130675147143E-002 -8.544608001890908E-003
+7.956875976388500E-003 -1.034465103301243E-002 +7.442185989144485E-003
-3.019115491813426E-003 +7.404351281243877E-003 -6.002049165563102E-003
-9.803732336131099E-003 +2.353188005288955E-003 +1.605809657593857E-002
-5.428035786517956E-003 +7.148568110619839E-003 -2.640525175238545E-002
-6.732226052368877E-004 -3.837292928736625E-003 -1.374345804832762E-002
-1.778861434505868E-002 -1.198451087879323E-003 -1.107483308825741E-003
-1.031966856380816E-004 -8.449981853999011E-003 +7.533202073679334E-004
+5.860363580269625E-003 -1.181781169101547E-003 -8.855787155441922E-003
-1.542898207799225E-002 +6.372004234598972E-003 -2.064699115948904E-002
-1.100701224370329E-002 -2.340048164706704E-004 -1.348243006262219E-002
+3.296182183536540E-003 -3.960131035565102E-003 +1.561389686763998E-002
+1.280024758675947E-002 +1.145866488295363E-002 -2.025549760143945E-002
+7.594926596272554E-003 +7.715381242899147E-003 -1.241550020325217E-002
+1.452715728911260E-003 +1.878649797005308E-004 +2.057732912815507E-002
+7.604359875279214E-003 +7.501183386624271E-003 +4.900766034151117E-004
-2.393411739685287E-002 -1.497163727268780E-004 +2.482882442243292E-002
-1.002676267110538E-002 +4.334399494961172E-003 +2.544855983956867E-002
-4.848574089076398E-003 -7.815321142964588E-003 -2.789934413786220E-002
-2.218168057706233E-004 -3.321286794271784E-003 +3.148254982153862E-003
+9.707341954907679E-003 +8.006741310605352E-003 -1.761720291143641E-002
-8.389592518496893E-003 +7.614895421497229E-003 -9.877055004436799E-003
-9.293728368016500E-003 +1.388424795390962E-002 -2.909876430759518E-002
+1.265177204748938E-003 -2.373445490985606E-002 -7.141338592421398E-003
-3.885532099455145E-003 +9.916313992495896E-003 -9.098010290401883E-003
-2.125450094173635E-002 -5.710077899552137E-003 +8.148704531414549E-003
-1.585742221217074E-002 +8.051549112430919E-003 -1.001735639351149E-002
+2.030165582234590E-002 +2.119574563896031E-003 +1.303713481467673E-002
-1.062219623078888E-002 -1.656388598670093E-002 -1.510484340225048E-002
+1.660977994362352E-002 -3.887193794496747E-003 -9.451342280521186E-003
+8.094599768417829E-003 +3.914484859993421E-003 +7.887923196025663E-003
-1.274723414047123E-002 +6.616311535174279E-004 -6.516387895814425E-003
-1.177621678917148E-002 +3.153699267732678E-003 -1.070935064998995E-002
-1.087315061061797E-002 -1.402549396757467E-002 -2.951432955557036E-002
+2.709821705245513E-002 +6.983344757187842E-004 -7.168247101551237E-003
+6.300799876965985E-003 -6.667012877374905E-003 +7.164110222704740E-004
+6.033560587390723E-003 -5.745207817209347E-003 +1.308513876737304E-002
-6.888305261208815E-003 -3.272800849896468E-002 +1.787851334833479E-002
+1.703311982864185E-002 -4.709999389785791E-003 -2.331346431587631E-002
+3.053149530539779E-003 +3.848186321341410E-003 +3.958111805181539E-003
+8.936115384607772E-005 -1.398657170976465E-002 +7.299431678779626E-003
+5.526091172351442E-003 -2.021408641453170E-002 +2.612084270056099E-002
-5.881236113189163E-003 -1.113386971667737E-002 -7.960992847157865E-003
+2.027431306153781E-003 +1.042369159802695E-004 -3.874637731695838E-003
+1.065244014853198E-002 +7.038854985394016E-003 -8.355505644489369E-003
+1.395867465867531E-002 +4.585683569425383E-003 +1.874775236370917E-002
+8.857950580814754E-003 +1.030899755588926E-002 +3.844409978761287E-003
+8.678735317858611E-003 +1.549542256814086E-002 -1.281356023506096E-003
-9.274882561223824E-003 +3.296333525910156E-003 -2.248784980810517E-003

