# Energy in atomic unit (1 Eh = 2625.499640 kJ/mol)
# -------------------------------------------------
# step         Total energy            Kinetic energy          Potential energy          Coulomb energy        van_der_Waals energy      Coulomb LR energy       Coulomb keq0 energy       Coulomb SR energy       Coulomb self energy     Coulomb molecule energy          XFT energy         XFT molecule energy
      0  -1.218391904510809E+003   2.180334522381329E+000  -1.220572239033190E+003  -1.436648569430770E+003   2.160763303975793E+002   1.494812982923997E-002   0.000000000000000E+000  -9.725811578395266E+002  -4.700965281748021E+002   0.000000000000000E+000   2.160763303975793E+002   0.000000000000000E+000
