ITEM: TIMESTEP
       0
ITEM: NUMBER OF ATOMS
     600
ITEM: BOX BOUNDS
    0.000   20.000
    0.000   20.000
    0.000   20.000
ITEM: ATOMS element id molid x y z q vx vy vz
O                    1             1         19.524   10.723    8.230         -0.848    0.000    0.000    0.000
O                    2             2         18.338    4.886    0.835         -0.848    0.000    0.000    0.000
O                    3             3         16.596    9.358    4.296         -0.848    0.000    0.000    0.000
O                    4             4          0.430   10.004    5.611         -0.848    0.000    0.000    0.000
O                    5             5          4.452   16.021   14.304         -0.848    0.000    0.000    0.000
O                    6             6          2.739    7.064    1.907         -0.848    0.000    0.000    0.000
O                    7             7          4.036   13.106   11.403         -0.848    0.000    0.000    0.000
O                    8             8         14.366   10.820   19.040         -0.848    0.000    0.000    0.000
O                    9             9         15.503   11.892    3.414         -0.848    0.000    0.000    0.000
O                   10            10         17.473    7.085   19.233         -0.848    0.000    0.000    0.000
O                   11            11          2.292   14.443   12.908         -0.848    0.000    0.000    0.000
O                   12            12         17.300    2.420   19.854         -0.848    0.000    0.000    0.000
O                   13            13          1.825   16.659   10.909         -0.848    0.000    0.000    0.000
O                   14            14         19.097   15.797   10.757         -0.848    0.000    0.000    0.000
O                   15            15         19.860   13.954    1.596         -0.848    0.000    0.000    0.000
O                   16            16         19.708   13.483   11.826         -0.848    0.000    0.000    0.000
O                   17            17          0.883    2.556   18.822         -0.848    0.000    0.000    0.000
O                   18            18         18.250    9.132    0.850         -0.848    0.000    0.000    0.000
O                   19            19         18.995    0.430   19.155         -0.848    0.000    0.000    0.000
O                   20            20          0.203    7.418    5.224         -0.848    0.000    0.000    0.000
O                   21            21         14.719    8.054   18.656         -0.848    0.000    0.000    0.000
O                   22            22         13.417   11.274    1.577         -0.848    0.000    0.000    0.000
O                   23            23          0.970   11.333   10.409         -0.848    0.000    0.000    0.000
O                   24            24         16.551    2.543    3.024         -0.848    0.000    0.000    0.000
O                   25            25          1.489    8.747   12.228         -0.848    0.000    0.000    0.000
O                   26            26          0.009   15.103   18.936         -0.848    0.000    0.000    0.000
O                   27            27         15.739    2.992   17.439         -0.848    0.000    0.000    0.000
O                   28            28         18.951   13.026   17.337         -0.848    0.000    0.000    0.000
O                   29            29          0.827    6.657    7.913         -0.848    0.000    0.000    0.000
O                   30            30         13.334    7.229   16.380         -0.848    0.000    0.000    0.000
O                   31            31         11.076    7.679   14.396         -0.848    0.000    0.000    0.000
O                   32            32         15.706    7.162   11.655         -0.848    0.000    0.000    0.000
O                   33            33         18.826   14.299    4.009         -0.848    0.000    0.000    0.000
O                   34            34         18.029    7.326    3.619         -0.848    0.000    0.000    0.000
O                   35            35          7.180    6.148    1.838         -0.848    0.000    0.000    0.000
O                   36            36          4.136    8.997    3.332         -0.848    0.000    0.000    0.000
O                   37            37          9.494    7.036    3.001         -0.848    0.000    0.000    0.000
O                   38            38         19.525   18.976   16.799         -0.848    0.000    0.000    0.000
O                   39            39          3.731    7.318   19.188         -0.848    0.000    0.000    0.000
O                   40            40         13.251    6.427    0.393         -0.848    0.000    0.000    0.000
O                   41            41         10.911   10.303    2.553         -0.848    0.000    0.000    0.000
O                   42            42         18.358   16.372   17.190         -0.848    0.000    0.000    0.000
O                   43            43         12.886    8.905    4.129         -0.848    0.000    0.000    0.000
O                   44            44          7.028    4.569   12.866         -0.848    0.000    0.000    0.000
O                   45            45         11.030    5.902    6.294         -0.848    0.000    0.000    0.000
O                   46            46         11.187    7.921    1.181         -0.848    0.000    0.000    0.000
O                   47            47          4.571   17.588   16.403         -0.848    0.000    0.000    0.000
O                   48            48         16.113    5.320    2.614         -0.848    0.000    0.000    0.000
O                   49            49          8.744   13.891   11.412         -0.848    0.000    0.000    0.000
O                   50            50         11.552   10.817   14.699         -0.848    0.000    0.000    0.000
O                   51            51         11.675    6.546    8.806         -0.848    0.000    0.000    0.000
O                   52            52         11.249   10.340    6.944         -0.848    0.000    0.000    0.000
O                   53            53         10.214    8.452    5.176         -0.848    0.000    0.000    0.000
O                   54            54         11.141    9.302    9.544         -0.848    0.000    0.000    0.000
O                   55            55          8.451    2.031   18.914         -0.848    0.000    0.000    0.000
O                   56            56         16.938   14.342    7.235         -0.848    0.000    0.000    0.000
O                   57            57          5.010   10.865   12.420         -0.848    0.000    0.000    0.000
O                   58            58          7.618   10.559   12.261         -0.848    0.000    0.000    0.000
O                   59            59          7.355   10.753    6.190         -0.848    0.000    0.000    0.000
O                   60            60          8.191    8.340    7.057         -0.848    0.000    0.000    0.000
O                   61            61          6.593   12.737   15.607         -0.848    0.000    0.000    0.000
O                   62            62         14.269   10.673   10.294         -0.848    0.000    0.000    0.000
O                   63            63          3.155    9.507    5.851         -0.848    0.000    0.000    0.000
O                   64            64          0.729    1.972    5.385         -0.848    0.000    0.000    0.000
O                   65            65          2.942   13.050    9.031         -0.848    0.000    0.000    0.000
O                   66            66          6.381    6.898   19.167         -0.848    0.000    0.000    0.000
O                   67            67         10.971    4.632   11.044         -0.848    0.000    0.000    0.000
O                   68            68          6.088   10.137    1.774         -0.848    0.000    0.000    0.000
O                   69            69          8.505    8.768    9.816         -0.848    0.000    0.000    0.000
O                   70            70          8.947    8.294   16.255         -0.848    0.000    0.000    0.000
O                   71            71         17.187    0.491    4.839         -0.848    0.000    0.000    0.000
O                   72            72         14.453   17.517    7.698         -0.848    0.000    0.000    0.000
O                   73            73         13.719    4.233    9.807         -0.848    0.000    0.000    0.000
O                   74            74          3.419    7.166    7.229         -0.848    0.000    0.000    0.000
O                   75            75          2.493   16.534   18.946         -0.848    0.000    0.000    0.000
O                   76            76         15.040    7.966    6.299         -0.848    0.000    0.000    0.000
O                   77            77          6.202   13.845   18.130         -0.848    0.000    0.000    0.000
O                   78            78          7.001   19.569   15.281         -0.848    0.000    0.000    0.000
O                   79            79         18.872   19.228    7.457         -0.848    0.000    0.000    0.000
O                   80            80          1.912   17.173    1.737         -0.848    0.000    0.000    0.000
O                   81            81         13.439    9.995   12.754         -0.848    0.000    0.000    0.000
O                   82            82          2.924    3.415    0.219         -0.848    0.000    0.000    0.000
O                   83            83         15.294    8.400   14.428         -0.848    0.000    0.000    0.000
O                   84            84         10.343    3.685   17.713         -0.848    0.000    0.000    0.000
O                   85            85         15.277    0.018    6.875         -0.848    0.000    0.000    0.000
O                   86            86          5.268   11.704   19.610         -0.848    0.000    0.000    0.000
O                   87            87          6.689    6.193    6.168         -0.848    0.000    0.000    0.000
O                   88            88         17.671   18.389    9.889         -0.848    0.000    0.000    0.000
O                   89            89          2.173   15.713    8.378         -0.848    0.000    0.000    0.000
O                   90            90         16.348   15.233    3.465         -0.848    0.000    0.000    0.000
O                   91            91          8.535    5.642   16.603         -0.848    0.000    0.000    0.000
O                   92            92          8.755    5.122    4.867         -0.848    0.000    0.000    0.000
O                   93            93          1.958    5.160   18.157         -0.848    0.000    0.000    0.000
O                   94            94         13.702    6.471    3.042         -0.848    0.000    0.000    0.000
O                   95            95          2.174    8.623    9.567         -0.848    0.000    0.000    0.000
O                   96            96          6.275   13.681   13.083         -0.848    0.000    0.000    0.000
O                   97            97          6.692    9.868   15.334         -0.848    0.000    0.000    0.000
O                   98            98         16.298    3.322   10.703         -0.848    0.000    0.000    0.000
O                   99            99         15.498    1.942   14.948         -0.848    0.000    0.000    0.000
O                  100           100          1.008   17.704    6.629         -0.848    0.000    0.000    0.000
O                  101           101          7.856    3.362    1.090         -0.848    0.000    0.000    0.000
O                  102           102          8.736   17.734   14.059         -0.848    0.000    0.000    0.000
O                  103           103          2.363   19.089   17.169         -0.848    0.000    0.000    0.000
O                  104           104         17.050   11.212   18.845         -0.848    0.000    0.000    0.000
O                  105           105          4.557   18.853   13.040         -0.848    0.000    0.000    0.000
O                  106           106         14.675    2.540    5.117         -0.848    0.000    0.000    0.000
O                  107           107          0.159    6.848    1.821         -0.848    0.000    0.000    0.000
O                  108           108         16.880    0.352   11.861         -0.848    0.000    0.000    0.000
O                  109           109         15.113    5.205    6.565         -0.848    0.000    0.000    0.000
O                  110           110         12.793    4.469    4.611         -0.848    0.000    0.000    0.000
O                  111           111         19.220   19.185   13.668         -0.848    0.000    0.000    0.000
O                  112           112          0.552    7.593   18.580         -0.848    0.000    0.000    0.000
O                  113           113          1.491    3.087   16.078         -0.848    0.000    0.000    0.000
O                  114           114          4.568    8.609   16.867         -0.848    0.000    0.000    0.000
O                  115           115         18.490   11.575    4.334         -0.848    0.000    0.000    0.000
O                  116           116         17.855    5.426   11.262         -0.848    0.000    0.000    0.000
O                  117           117         17.714   12.036    1.419         -0.848    0.000    0.000    0.000
O                  118           118          6.534    1.547   16.900         -0.848    0.000    0.000    0.000
O                  119           119         10.506    3.118    3.978         -0.848    0.000    0.000    0.000
O                  120           120          4.881    1.821   19.834         -0.848    0.000    0.000    0.000
O                  121           121          0.766    1.532   14.218         -0.848    0.000    0.000    0.000
O                  122           122         10.158    1.794   15.548         -0.848    0.000    0.000    0.000
O                  123           123         10.236   15.901    9.605         -0.848    0.000    0.000    0.000
O                  124           124          1.646    1.413   10.180         -0.848    0.000    0.000    0.000
O                  125           125         18.876    7.542    9.838         -0.848    0.000    0.000    0.000
O                  126           126         16.816    9.549   10.745         -0.848    0.000    0.000    0.000
O                  127           127         17.917   11.426   12.504         -0.848    0.000    0.000    0.000
O                  128           128          4.173    2.754   17.223         -0.848    0.000    0.000    0.000
O                  129           129         17.371   10.224   15.254         -0.848    0.000    0.000    0.000
O                  130           130          4.591   11.097    7.561         -0.848    0.000    0.000    0.000
O                  131           131         11.701   17.713    8.079         -0.848    0.000    0.000    0.000
O                  132           132          3.225    0.266   14.774         -0.848    0.000    0.000    0.000
O                  133           133          8.567   17.931   10.742         -0.848    0.000    0.000    0.000
O                  134           134          0.247   16.756    4.288         -0.848    0.000    0.000    0.000
O                  135           135         10.716   19.512   10.242         -0.848    0.000    0.000    0.000
O                  136           136          6.917   19.452   18.888         -0.848    0.000    0.000    0.000
O                  137           137         19.875   11.313   15.359         -0.848    0.000    0.000    0.000
O                  138           138         19.256    3.442   12.847         -0.848    0.000    0.000    0.000
O                  139           139          0.309   19.412    1.448         -0.848    0.000    0.000    0.000
O                  140           140         18.252    8.921   17.571         -0.848    0.000    0.000    0.000
O                  141           141          2.276   19.244   11.532         -0.848    0.000    0.000    0.000
O                  142           142          2.808   10.662   16.556         -0.848    0.000    0.000    0.000
O                  143           143         10.780   15.865   12.368         -0.848    0.000    0.000    0.000
O                  144           144          0.031   19.668    4.212         -0.848    0.000    0.000    0.000
O                  145           145          3.106    7.358   14.081         -0.848    0.000    0.000    0.000
O                  146           146         13.944   11.439    7.826         -0.848    0.000    0.000    0.000
O                  147           147          2.228   13.045   15.184         -0.848    0.000    0.000    0.000
O                  148           148          3.517   14.822   17.028         -0.848    0.000    0.000    0.000
O                  149           149         16.010   12.258    6.237         -0.848    0.000    0.000    0.000
O                  150           150          4.418    6.621    4.469         -0.848    0.000    0.000    0.000
O                  151           151         10.148    8.868   18.796         -0.848    0.000    0.000    0.000
O                  152           152         16.322    9.964    8.126         -0.848    0.000    0.000    0.000
O                  153           153         12.109   10.655   17.290         -0.848    0.000    0.000    0.000
O                  154           154         11.695   13.481   13.988         -0.848    0.000    0.000    0.000
O                  155           155         12.994    0.577   11.848         -0.848    0.000    0.000    0.000
O                  156           156         14.692   13.043   13.022         -0.848    0.000    0.000    0.000
O                  157           157          4.523    2.584   13.611         -0.848    0.000    0.000    0.000
O                  158           158         14.931   15.749   13.623         -0.848    0.000    0.000    0.000
O                  159           159         17.327   17.082   13.179         -0.848    0.000    0.000    0.000
O                  160           160          8.161   10.996    3.582         -0.848    0.000    0.000    0.000
O                  161           161          6.534   19.835   11.343         -0.848    0.000    0.000    0.000
O                  162           162          7.519    1.660   13.490         -0.848    0.000    0.000    0.000
O                  163           163         12.506    4.147   19.089         -0.848    0.000    0.000    0.000
O                  164           164          2.822    4.715   14.402         -0.848    0.000    0.000    0.000
O                  165           165         15.346   19.073   13.898         -0.848    0.000    0.000    0.000
O                  166           166         14.551    0.995    9.201         -0.848    0.000    0.000    0.000
O                  167           167          7.963    8.753    0.472         -0.848    0.000    0.000    0.000
O                  168           168         14.087    7.589    9.605         -0.848    0.000    0.000    0.000
O                  169           169         10.938   12.934   16.689         -0.848    0.000    0.000    0.000
O                  170           170         12.938   17.766   12.787         -0.848    0.000    0.000    0.000
O                  171           171         14.599   18.397   10.141         -0.848    0.000    0.000    0.000
O                  172           172         11.198   19.120   14.976         -0.848    0.000    0.000    0.000
O                  173           173          0.007    1.563    8.063         -0.848    0.000    0.000    0.000
O                  174           174          6.032    6.422    8.731         -0.848    0.000    0.000    0.000
O                  175           175          7.067   16.749   17.280         -0.848    0.000    0.000    0.000
O                  176           176          8.181    5.521   10.195         -0.848    0.000    0.000    0.000
O                  177           177          4.926    9.622   10.055         -0.848    0.000    0.000    0.000
O                  178           178         13.685    3.336   13.208         -0.848    0.000    0.000    0.000
O                  179           179          8.646   14.548   16.174         -0.848    0.000    0.000    0.000
O                  180           180         15.534    5.486   16.549         -0.848    0.000    0.000    0.000
O                  181           181         15.667   14.996    9.629         -0.848    0.000    0.000    0.000
O                  182           182         10.113   13.474    8.339         -0.848    0.000    0.000    0.000
O                  183           183         17.450    2.265    7.921         -0.848    0.000    0.000    0.000
O                  184           184          6.902    7.495   13.546         -0.848    0.000    0.000    0.000
O                  185           185          2.686   19.822   19.796         -0.848    0.000    0.000    0.000
O                  186           186          4.955   18.695    0.877         -0.848    0.000    0.000    0.000
O                  187           187          3.769    4.719    2.550         -0.848    0.000    0.000    0.000
O                  188           188          3.677   17.943    6.040         -0.848    0.000    0.000    0.000
O                  189           189          3.131   15.612    3.677         -0.848    0.000    0.000    0.000
O                  190           190         14.898   14.707    1.057         -0.848    0.000    0.000    0.000
O                  191           191         16.323   16.472   19.203         -0.848    0.000    0.000    0.000
O                  192           192          5.225    5.268   17.416         -0.848    0.000    0.000    0.000
O                  193           193          5.194    6.586   11.726         -0.848    0.000    0.000    0.000
O                  194           194         10.970    4.605    1.759         -0.848    0.000    0.000    0.000
O                  195           195         10.935    4.980   13.518         -0.848    0.000    0.000    0.000
O                  196           196          2.398    2.366    3.136         -0.848    0.000    0.000    0.000
O                  197           197         17.375    4.850   14.399         -0.848    0.000    0.000    0.000
O                  198           198          3.482   19.528    3.376         -0.848    0.000    0.000    0.000
O                  199           199         17.667   14.279   15.279         -0.848    0.000    0.000    0.000
O                  200           200         17.271   17.994    5.674         -0.848    0.000    0.000    0.000
H1                 201             1         18.548   10.926    8.306          0.424    0.000    0.000    0.000
H1                 202             2         17.456    4.832    1.303          0.424    0.000    0.000    0.000
H1                 203             3         16.109   10.155    3.939          0.424    0.000    0.000    0.000
H1                 204             4          1.426    9.993    5.528          0.424    0.000    0.000    0.000
H1                 205             5          3.841   15.540   13.674          0.424    0.000    0.000    0.000
H1                 206             6          1.756    6.891    1.965          0.424    0.000    0.000    0.000
H1                 207             7          4.372   12.181   11.583          0.424    0.000    0.000    0.000
H1                 208             8         13.902   11.221   19.830          0.424    0.000    0.000    0.000
H1                 209             9         15.571   12.587    4.129          0.424    0.000    0.000    0.000
H1                 210            10         17.511    7.632    0.070          0.424    0.000    0.000    0.000
H1                 211            11          2.991   13.956   12.384          0.424    0.000    0.000    0.000
H1                 212            12         16.642    2.632   19.131          0.424    0.000    0.000    0.000
H1                 213            13          2.054   17.604   11.145          0.424    0.000    0.000    0.000
H1                 214            14          0.025   16.141   10.617          0.424    0.000    0.000    0.000
H1                 215            15         19.651   14.484    2.418          0.424    0.000    0.000    0.000
H1                 216            16          0.128   12.861   11.166          0.424    0.000    0.000    0.000
H1                 217            17          1.486    2.876   19.553          0.424    0.000    0.000    0.000
H1                 218            18         18.217    9.936    1.443          0.424    0.000    0.000    0.000
H1                 219            19         18.966   19.946   18.280          0.424    0.000    0.000    0.000
H1                 220            20          0.044    8.403    5.284          0.424    0.000    0.000    0.000
H1                 221            21         15.651    7.708   18.759          0.424    0.000    0.000    0.000
H1                 222            22         12.535   11.249    2.049          0.424    0.000    0.000    0.000
H1                 223            23          1.452   10.470   10.558          0.424    0.000    0.000    0.000
H1                 224            24         17.027    2.143    2.240          0.424    0.000    0.000    0.000
H1                 225            25          2.007    8.193   12.880          0.424    0.000    0.000    0.000
H1                 226            26          0.923   15.457   18.739          0.424    0.000    0.000    0.000
H1                 227            27         15.888    2.584   16.539          0.424    0.000    0.000    0.000
H1                 228            28         18.406   12.341   17.819          0.424    0.000    0.000    0.000
H1                 229            29          0.175    6.157    8.484          0.424    0.000    0.000    0.000
H1                 230            30         13.551    7.754   17.203          0.424    0.000    0.000    0.000
H1                 231            31         11.788    7.422   15.049          0.424    0.000    0.000    0.000
H1                 232            32         16.347    6.424   11.444          0.424    0.000    0.000    0.000
H1                 233            33         17.899   14.664    3.933          0.424    0.000    0.000    0.000
H1                 234            34         18.725    7.287    4.336          0.424    0.000    0.000    0.000
H1                 235            35          7.148    6.593    0.943          0.424    0.000    0.000    0.000
H1                 236            36          4.731    9.567    2.765          0.424    0.000    0.000    0.000
H1                 237            37          8.632    6.951    2.501          0.424    0.000    0.000    0.000
H1                 238            38         19.388   19.255   15.849          0.424    0.000    0.000    0.000
H1                 239            39          3.211    6.644   18.663          0.424    0.000    0.000    0.000
H1                 240            40         13.806    6.913   19.718          0.424    0.000    0.000    0.000
H1                 241            41         10.859    9.372    2.191          0.424    0.000    0.000    0.000
H1                 242            42         19.106   16.043   17.766          0.424    0.000    0.000    0.000
H1                 243            43         13.310    9.713    3.721          0.424    0.000    0.000    0.000
H1                 244            44          6.047    4.667   13.037          0.424    0.000    0.000    0.000
H1                 245            45         11.730    5.348    5.843          0.424    0.000    0.000    0.000
H1                 246            46         12.019    7.470    0.858          0.424    0.000    0.000    0.000
H1                 247            47          3.714   18.033   16.666          0.424    0.000    0.000    0.000
H1                 248            48         15.187    5.674    2.481          0.424    0.000    0.000    0.000
H1                 249            49          8.925   13.192   10.720          0.424    0.000    0.000    0.000
H1                 250            50         11.192   11.749   14.655          0.424    0.000    0.000    0.000
H1                 251            51         11.449    5.794    9.425          0.424    0.000    0.000    0.000
H1                 252            52         10.742   10.069    6.126          0.424    0.000    0.000    0.000
H1                 253            53          9.798    8.167    4.312          0.424    0.000    0.000    0.000
H1                 254            54         11.751    9.766   10.185          0.424    0.000    0.000    0.000
H1                 255            55          8.016    2.356   19.753          0.424    0.000    0.000    0.000
H1                 256            56         16.393   14.465    8.064          0.424    0.000    0.000    0.000
H1                 257            57          4.760   10.722   13.377          0.424    0.000    0.000    0.000
H1                 258            58          8.223   10.532   13.058          0.424    0.000    0.000    0.000
H1                 259            59          7.645    9.808    6.342          0.424    0.000    0.000    0.000
H1                 260            60          8.994    8.384    6.463          0.424    0.000    0.000    0.000
H1                 261            61          6.810   11.760   15.613          0.424    0.000    0.000    0.000
H1                 262            62         15.267   10.724   10.326          0.424    0.000    0.000    0.000
H1                 263            63          3.379    9.419    4.880          0.424    0.000    0.000    0.000
H1                 264            64          0.499    1.102    4.948          0.424    0.000    0.000    0.000
H1                 265            65          3.556   12.600    8.383          0.424    0.000    0.000    0.000
H1                 266            66          6.339    6.096   18.570          0.424    0.000    0.000    0.000
H1                 267            67         10.120    4.409   10.568          0.424    0.000    0.000    0.000
H1                 268            68          6.692    9.611    1.174          0.424    0.000    0.000    0.000
H1                 269            69          8.300    8.572    8.857          0.424    0.000    0.000    0.000
H1                 270            70          8.239    8.967   16.042          0.424    0.000    0.000    0.000
H1                 271            71         16.828    1.140    4.168          0.424    0.000    0.000    0.000
H1                 272            72         14.485   17.598    8.694          0.424    0.000    0.000    0.000
H1                 273            73         13.886    5.095    9.327          0.424    0.000    0.000    0.000
H1                 274            74          4.137    6.852    7.849          0.424    0.000    0.000    0.000
H1                 275            75          2.681   17.485   18.701          0.424    0.000    0.000    0.000
H1                 276            76         15.156    6.990    6.485          0.424    0.000    0.000    0.000
H1                 277            77          6.220   14.841   18.053          0.424    0.000    0.000    0.000
H1                 278            78          6.843    0.292   15.953          0.424    0.000    0.000    0.000
H1                 279            79         19.211    0.124    7.746          0.424    0.000    0.000    0.000
H1                 280            80          2.404   16.548    2.343          0.424    0.000    0.000    0.000
H1                 281            81         13.538    9.911   11.763          0.424    0.000    0.000    0.000
H1                 282            82          3.703    2.808    0.065          0.424    0.000    0.000    0.000
H1                 283            83         15.479    7.657   13.784          0.424    0.000    0.000    0.000
H1                 284            84         10.312    2.963   17.021          0.424    0.000    0.000    0.000
H1                 285            85         15.901   19.892    6.104          0.424    0.000    0.000    0.000
H1                 286            86          5.693   12.545   19.277          0.424    0.000    0.000    0.000
H1                 287            87          7.426    5.642    5.777          0.424    0.000    0.000    0.000
H1                 288            88         18.090   17.582   10.307          0.424    0.000    0.000    0.000
H1                 289            89          2.220   16.073    9.310          0.424    0.000    0.000    0.000
H1                 290            90         15.681   15.543    4.142          0.424    0.000    0.000    0.000
H1                 291            91          7.547    5.489   16.635          0.424    0.000    0.000    0.000
H1                 292            92          9.278    4.417    4.387          0.424    0.000    0.000    0.000
H1                 293            93          2.167    4.565   18.933          0.424    0.000    0.000    0.000
H1                 294            94         13.591    6.456    2.048          0.424    0.000    0.000    0.000
H1                 295            95          2.077    8.279   10.501          0.424    0.000    0.000    0.000
H1                 296            96          5.462   13.480   12.536          0.424    0.000    0.000    0.000
H1                 297            97          6.069    9.324   15.896          0.424    0.000    0.000    0.000
H1                 298            98         15.403    3.531   10.308          0.424    0.000    0.000    0.000
H1                 299            99         15.637    0.981   14.709          0.424    0.000    0.000    0.000
H1                 300           100          0.624   17.228    5.838          0.424    0.000    0.000    0.000
H1                 301           101          7.304    4.196    1.086          0.424    0.000    0.000    0.000
H1                 302           102          8.168   18.335   14.620          0.424    0.000    0.000    0.000
H1                 303           103          1.391   18.965   16.969          0.424    0.000    0.000    0.000
H1                 304           104         16.087   11.078   19.077          0.424    0.000    0.000    0.000
H1                 305           105          4.486   17.962   13.489          0.424    0.000    0.000    0.000
H1                 306           106         14.719    1.608    5.475          0.424    0.000    0.000    0.000
H1                 307           107         19.880    7.371    2.626          0.424    0.000    0.000    0.000
H1                 308           108         16.123    0.039   12.434          0.424    0.000    0.000    0.000
H1                 309           109         14.384    4.627    6.199          0.424    0.000    0.000    0.000
H1                 310           110         13.503    3.765    4.629          0.424    0.000    0.000    0.000
H1                 311           111         18.335   18.794   13.413          0.424    0.000    0.000    0.000
H1                 312           112          0.047    7.785   19.421          0.424    0.000    0.000    0.000
H1                 313           113          1.239    2.819   17.008          0.424    0.000    0.000    0.000
H1                 314           114          3.948    9.377   16.709          0.424    0.000    0.000    0.000
H1                 315           115         18.295   11.422    3.365          0.424    0.000    0.000    0.000
H1                 316           116         18.382    6.199   10.912          0.424    0.000    0.000    0.000
H1                 317           117         18.274   12.864    1.421          0.424    0.000    0.000    0.000
H1                 318           118          5.661    2.036   16.882          0.424    0.000    0.000    0.000
H1                 319           119         10.697    3.467    3.060          0.424    0.000    0.000    0.000
H1                 320           120          4.493    0.930    0.071          0.424    0.000    0.000    0.000
H1                 321           121          1.671    1.109   14.186          0.424    0.000    0.000    0.000
H1                 322           122          9.339    1.743   14.977          0.424    0.000    0.000    0.000
H1                 323           123         10.396   15.008    9.185          0.424    0.000    0.000    0.000
H1                 324           124          1.512    2.257   10.699          0.424    0.000    0.000    0.000
H1                 325           125         19.554    8.270    9.946          0.424    0.000    0.000    0.000
H1                 326           126         16.473    8.671   11.079          0.424    0.000    0.000    0.000
H1                 327           127         17.649   10.641   11.944          0.424    0.000    0.000    0.000
H1                 328           128          4.161    2.478   18.185          0.424    0.000    0.000    0.000
H1                 329           129         17.615    9.631   16.021          0.424    0.000    0.000    0.000
H1                 330           130          4.053   10.553    6.918          0.424    0.000    0.000    0.000
H1                 331           131         11.180   18.153    7.348          0.424    0.000    0.000    0.000
H1                 332           132          3.736   19.782   14.062          0.424    0.000    0.000    0.000
H1                 333           133          8.719   17.132   10.159          0.424    0.000    0.000    0.000
H1                 334           134          1.030   16.599    3.686          0.424    0.000    0.000    0.000
H1                 335           135         11.193   18.950    9.567          0.424    0.000    0.000    0.000
H1                 336           136          7.778   19.949   18.786          0.424    0.000    0.000    0.000
H1                 337           137         19.570   11.882   16.123          0.424    0.000    0.000    0.000
H1                 338           138          0.180    3.240   13.170          0.424    0.000    0.000    0.000
H1                 339           139          0.046   19.786    2.338          0.424    0.000    0.000    0.000
H1                 340           140         17.865    8.090   17.971          0.424    0.000    0.000    0.000
H1                 341           141          3.106   19.475   12.039          0.424    0.000    0.000    0.000
H1                 342           142          1.881   10.292   16.613          0.424    0.000    0.000    0.000
H1                 343           143         10.056   16.268   12.927          0.424    0.000    0.000    0.000
H1                 344           144          0.332   18.729    4.380          0.424    0.000    0.000    0.000
H1                 345           145          3.196    7.763   14.991          0.424    0.000    0.000    0.000
H1                 346           146         13.107   11.372    7.283          0.424    0.000    0.000    0.000
H1                 347           147          1.400   12.483   15.171          0.424    0.000    0.000    0.000
H1                 348           148          4.439   14.438   16.979          0.424    0.000    0.000    0.000
H1                 349           149         16.694   11.882    5.611          0.424    0.000    0.000    0.000
H1                 350           150          3.688    6.387    5.111          0.424    0.000    0.000    0.000
H1                 351           151          9.476    8.808   18.057          0.424    0.000    0.000    0.000
H1                 352           152         15.650   10.645    7.833          0.424    0.000    0.000    0.000
H1                 353           153         11.821   11.576   17.552          0.424    0.000    0.000    0.000
H1                 354           154         12.557   13.146   13.607          0.424    0.000    0.000    0.000
H1                 355           155         13.599    0.837   11.096          0.424    0.000    0.000    0.000
H1                 356           156         14.578   12.089   12.744          0.424    0.000    0.000    0.000
H1                 357           157          4.037    1.859   14.100          0.424    0.000    0.000    0.000
H1                 358           158         14.210   16.441   13.587          0.424    0.000    0.000    0.000
H1                 359           159         17.951   16.412   12.778          0.424    0.000    0.000    0.000
H1                 360           160          7.397   10.763    2.979          0.424    0.000    0.000    0.000
H1                 361           161          7.286   19.231   11.079          0.424    0.000    0.000    0.000
H1                 362           162          7.150    0.930   14.067          0.424    0.000    0.000    0.000
H1                 363           163         13.118    3.400   18.829          0.424    0.000    0.000    0.000
H1                 364           164          3.550    4.070   14.169          0.424    0.000    0.000    0.000
H1                 365           165         14.436   18.799   13.584          0.424    0.000    0.000    0.000
H1                 366           166         14.850    0.579    8.342          0.424    0.000    0.000    0.000
H1                 367           167          8.842    9.073    0.120          0.424    0.000    0.000    0.000
H1                 368           168         14.315    8.508    9.282          0.424    0.000    0.000    0.000
H1                 369           169         10.035   13.353   16.782          0.424    0.000    0.000    0.000
H1                 370           170         12.808   18.448   12.066          0.424    0.000    0.000    0.000
H1                 371           171         14.533   19.393   10.076          0.424    0.000    0.000    0.000
H1                 372           172         10.474   18.569   14.561          0.424    0.000    0.000    0.000
H1                 373           173          0.442    1.719    7.176          0.424    0.000    0.000    0.000
H1                 374           174          6.874    6.092    9.156          0.424    0.000    0.000    0.000
H1                 375           175          7.653   17.386   17.783          0.424    0.000    0.000    0.000
H1                 376           176          8.766    6.330   10.262          0.424    0.000    0.000    0.000
H1                 377           177          4.894   10.220   10.856          0.424    0.000    0.000    0.000
H1                 378           178         12.743    3.379   13.541          0.424    0.000    0.000    0.000
H1                 379           179          8.223   15.270   16.722          0.424    0.000    0.000    0.000
H1                 380           180         15.892    6.242   17.097          0.424    0.000    0.000    0.000
H1                 381           181         16.562   15.289    9.966          0.424    0.000    0.000    0.000
H1                 382           182          9.227   13.040    8.172          0.424    0.000    0.000    0.000
H1                 383           183         17.038    2.618    8.761          0.424    0.000    0.000    0.000
H1                 384           184          6.018    7.483   13.078          0.424    0.000    0.000    0.000
H1                 385           185          3.424   19.310    0.236          0.424    0.000    0.000    0.000
H1                 386           186          5.781   18.676    0.313          0.424    0.000    0.000    0.000
H1                 387           187          3.335    4.032    3.132          0.424    0.000    0.000    0.000
H1                 388           188          2.696   17.986    6.225          0.424    0.000    0.000    0.000
H1                 389           189          3.000   14.739    4.147          0.424    0.000    0.000    0.000
H1                 390           190         15.394   15.385    0.514          0.424    0.000    0.000    0.000
H1                 391           191         17.236   16.535   18.800          0.424    0.000    0.000    0.000
H1                 392           192          4.769    6.158   17.412          0.424    0.000    0.000    0.000
H1                 393           193          4.447    5.969   11.974          0.424    0.000    0.000    0.000
H1                 394           194         10.860    5.597    1.700          0.424    0.000    0.000    0.000
H1                 395           195         10.645    4.696   14.432          0.424    0.000    0.000    0.000
H1                 396           196          2.912    1.510    3.191          0.424    0.000    0.000    0.000
H1                 397           197         18.297    4.685   14.049          0.424    0.000    0.000    0.000
H1                 398           198          3.217   18.581    3.196          0.424    0.000    0.000    0.000
H1                 399           199         18.172   13.629   15.846          0.424    0.000    0.000    0.000
H1                 400           200         17.287   18.760    5.032          0.424    0.000    0.000    0.000
H2                 401             1         19.988   10.996    9.073          0.424    0.000    0.000    0.000
H2                 402             2         18.500    4.039    0.329          0.424    0.000    0.000    0.000
H2                 403             3         16.097    8.986    5.079          0.424    0.000    0.000    0.000
H2                 404             4          0.176   10.237    6.549          0.424    0.000    0.000    0.000
H2                 405             5          5.315   15.521   14.378          0.424    0.000    0.000    0.000
H2                 406             6          3.233    6.195    1.924          0.424    0.000    0.000    0.000
H2                 407             7          3.625   13.139   10.492          0.424    0.000    0.000    0.000
H2                 408             8         13.722   10.741   18.280          0.424    0.000    0.000    0.000
H2                 409             9         16.159   12.097    2.687          0.424    0.000    0.000    0.000
H2                 410            10         17.927    6.207   19.388          0.424    0.000    0.000    0.000
H2                 411            11          1.385   14.171   12.585          0.424    0.000    0.000    0.000
H2                 412            12         17.804    1.591   19.612          0.424    0.000    0.000    0.000
H2                 413            13          2.063   16.058   11.672          0.424    0.000    0.000    0.000
H2                 414            14         19.138   14.879   11.152          0.424    0.000    0.000    0.000
H2                 415            15          0.725   13.469    1.723          0.424    0.000    0.000    0.000
H2                 416            16         18.966   13.011   12.303          0.424    0.000    0.000    0.000
H2                 417            17          0.229    1.897   19.194          0.424    0.000    0.000    0.000
H2                 418            18         18.644    8.363    1.353          0.424    0.000    0.000    0.000
H2                 419            19         19.656   19.986   19.760          0.424    0.000    0.000    0.000
H2                 420            20          0.473    7.068    6.121          0.424    0.000    0.000    0.000
H2                 421            21         14.679    9.003   18.967          0.424    0.000    0.000    0.000
H2                 422            22         14.141   11.480    2.234          0.424    0.000    0.000    0.000
H2                 423            23          1.527   11.930    9.831          0.424    0.000    0.000    0.000
H2                 424            24         16.467    3.531    2.895          0.424    0.000    0.000    0.000
H2                 425            25          0.977    9.450   12.721          0.424    0.000    0.000    0.000
H2                 426            26         19.894   15.009   19.925          0.424    0.000    0.000    0.000
H2                 427            27         15.758    3.989   17.361          0.424    0.000    0.000    0.000
H2                 428            28         19.231   13.741   17.977          0.424    0.000    0.000    0.000
H2                 429            29          1.239    7.396    8.447          0.424    0.000    0.000    0.000
H2                 430            30         13.810    6.350   16.411          0.424    0.000    0.000    0.000
H2                 431            31         11.345    8.519   13.923          0.424    0.000    0.000    0.000
H2                 432            32         15.106    7.316   10.870          0.424    0.000    0.000    0.000
H2                 433            33         18.789   13.364    4.362          0.424    0.000    0.000    0.000
H2                 434            34         17.392    8.072    3.813          0.424    0.000    0.000    0.000
H2                 435            35          6.482    6.546    2.434          0.424    0.000    0.000    0.000
H2                 436            36          3.574    8.414    2.744          0.424    0.000    0.000    0.000
H2                 437            37         10.220    7.309    2.371          0.424    0.000    0.000    0.000
H2                 438            38         19.006   18.140   16.979          0.424    0.000    0.000    0.000
H2                 439            39          3.268    7.494    0.057          0.424    0.000    0.000    0.000
H2                 440            40         12.973    5.541    0.021          0.424    0.000    0.000    0.000
H2                 441            41         10.060   10.523    3.030          0.424    0.000    0.000    0.000
H2                 442            42         18.056   15.637   16.582          0.424    0.000    0.000    0.000
H2                 443            43         11.977    9.143    4.471          0.424    0.000    0.000    0.000
H2                 444            44          7.377    3.778   13.368          0.424    0.000    0.000    0.000
H2                 445            45         10.127    5.514    6.107          0.424    0.000    0.000    0.000
H2                 446            46         10.799    8.472    0.443          0.424    0.000    0.000    0.000
H2                 447            47          4.378   16.853   15.753          0.424    0.000    0.000    0.000
H2                 448            48         16.721    6.069    2.878          0.424    0.000    0.000    0.000
H2                 449            49          9.591   14.378   11.624          0.424    0.000    0.000    0.000
H2                 450            50         12.433   10.777   14.227          0.424    0.000    0.000    0.000
H2                 451            51         11.394    6.309    7.877          0.424    0.000    0.000    0.000
H2                 452            52         11.056    9.696    7.684          0.424    0.000    0.000    0.000
H2                 453            53         10.909    7.786    5.446          0.424    0.000    0.000    0.000
H2                 454            54         11.452    8.361    9.408          0.424    0.000    0.000    0.000
H2                 455            55          9.226    2.622   18.690          0.424    0.000    0.000    0.000
H2                 456            56         17.558   15.119    7.125          0.424    0.000    0.000    0.000
H2                 457            57          6.004   10.950   12.344          0.424    0.000    0.000    0.000
H2                 458            58          7.816    9.780   11.666          0.424    0.000    0.000    0.000
H2                 459            59          6.773   11.049    6.947          0.424    0.000    0.000    0.000
H2                 460            60          7.575    7.622    6.733          0.424    0.000    0.000    0.000
H2                 461            61          6.383   13.025   14.673          0.424    0.000    0.000    0.000
H2                 462            62         13.944   11.030    9.418          0.424    0.000    0.000    0.000
H2                 463            63          3.362    8.649    6.321          0.424    0.000    0.000    0.000
H2                 464            64          1.454    2.424    4.865          0.424    0.000    0.000    0.000
H2                 465            65          2.521   13.845    8.594          0.424    0.000    0.000    0.000
H2                 466            66          5.486    7.344   19.189          0.424    0.000    0.000    0.000
H2                 467            67         10.786    4.757   12.019          0.424    0.000    0.000    0.000
H2                 468            68          5.721   10.921    1.274          0.424    0.000    0.000    0.000
H2                 469            69          9.436    9.124    9.892          0.424    0.000    0.000    0.000
H2                 470            70          9.529    8.157   15.453          0.424    0.000    0.000    0.000
H2                 471            71         17.795    0.970    5.472          0.424    0.000    0.000    0.000
H2                 472            72         15.301   17.101    7.370          0.424    0.000    0.000    0.000
H2                 473            73         12.798    4.243   10.198          0.424    0.000    0.000    0.000
H2                 474            74          2.551    6.737    7.479          0.424    0.000    0.000    0.000
H2                 475            75          2.998   15.926   18.334          0.424    0.000    0.000    0.000
H2                 476            76         14.094    8.142    6.028          0.424    0.000    0.000    0.000
H2                 477            77          6.615   13.439   17.315          0.424    0.000    0.000    0.000
H2                 478            78          6.258   18.902   15.327          0.424    0.000    0.000    0.000
H2                 479            79         18.503   18.740    8.248          0.424    0.000    0.000    0.000
H2                 480            80          2.006   16.862    0.791          0.424    0.000    0.000    0.000
H2                 481            81         13.964    9.272   13.204          0.424    0.000    0.000    0.000
H2                 482            82          3.106    3.996    1.012          0.424    0.000    0.000    0.000
H2                 483            83         14.534    8.142   15.024          0.424    0.000    0.000    0.000
H2                 484            84          9.621    4.352   17.531          0.424    0.000    0.000    0.000
H2                 485            85         14.921   19.130    7.165          0.424    0.000    0.000    0.000
H2                 486            86          4.464   11.494   19.054          0.424    0.000    0.000    0.000
H2                 487            87          5.849    6.043    5.647          0.424    0.000    0.000    0.000
H2                 488            88         17.647   19.135   10.555          0.424    0.000    0.000    0.000
H2                 489            89          1.638   16.336    7.807          0.424    0.000    0.000    0.000
H2                 490            90         15.870   14.922    2.644          0.424    0.000    0.000    0.000
H2                 491            91          8.720    6.625   16.590          0.424    0.000    0.000    0.000
H2                 492            92          8.567    5.880    4.243          0.424    0.000    0.000    0.000
H2                 493            93          1.653    4.604   17.384          0.424    0.000    0.000    0.000
H2                 494            94         13.509    7.391    3.384          0.424    0.000    0.000    0.000
H2                 495            95          3.121    8.907    9.414          0.424    0.000    0.000    0.000
H2                 496            96          7.081   13.690   12.492          0.424    0.000    0.000    0.000
H2                 497            97          6.971    9.334   14.535          0.424    0.000    0.000    0.000
H2                 498            98         16.763    4.174   10.945          0.424    0.000    0.000    0.000
H2                 499            99         14.913    2.375   14.262          0.424    0.000    0.000    0.000
H2                 500           100          0.327   18.335    7.001          0.424    0.000    0.000    0.000
H2                 501           101          8.635    3.481    1.705          0.424    0.000    0.000    0.000
H2                 502           102          8.360   17.687   13.133          0.424    0.000    0.000    0.000
H2                 503           103          2.470   19.754   17.907          0.424    0.000    0.000    0.000
H2                 504           104         17.411   10.379   18.427          0.424    0.000    0.000    0.000
H2                 505           105          5.381   18.875   12.473          0.424    0.000    0.000    0.000
H2                 506           106         15.303    2.631    4.344          0.424    0.000    0.000    0.000
H2                 507           107         19.537    6.076    1.693          0.424    0.000    0.000    0.000
H2                 508           108         16.586    1.141   11.322          0.424    0.000    0.000    0.000
H2                 509           109         15.981    4.709    6.530          0.424    0.000    0.000    0.000
H2                 510           110         12.997    5.130    3.888          0.424    0.000    0.000    0.000
H2                 511           111         19.948   18.713   13.171          0.424    0.000    0.000    0.000
H2                 512           112          0.724    6.610   18.511          0.424    0.000    0.000    0.000
H2                 513           113          1.080    2.450   15.425          0.424    0.000    0.000    0.000
H2                 514           114          4.395    8.221   17.772          0.424    0.000    0.000    0.000
H2                 515           115         19.194   10.933    4.637          0.424    0.000    0.000    0.000
H2                 516           116         18.446    4.846   11.824          0.424    0.000    0.000    0.000
H2                 517           117         17.589   11.720    0.479          0.424    0.000    0.000    0.000
H2                 518           118          7.152    1.993   17.547          0.424    0.000    0.000    0.000
H2                 519           119         11.185    3.478    4.619          0.424    0.000    0.000    0.000
H2                 520           120          5.736    1.956    0.334          0.424    0.000    0.000    0.000
H2                 521           121          0.065    0.819   14.243          0.424    0.000    0.000    0.000
H2                 522           122         10.545    0.879   15.659          0.424    0.000    0.000    0.000
H2                 523           123         10.690   16.609    9.066          0.424    0.000    0.000    0.000
H2                 524           124          1.107    1.449    9.338          0.424    0.000    0.000    0.000
H2                 525           125         18.341    7.706    9.009          0.424    0.000    0.000    0.000
H2                 526           126         16.634    9.628    9.765          0.424    0.000    0.000    0.000
H2                 527           127         17.658   11.261   13.455          0.424    0.000    0.000    0.000
H2                 528           128          3.324    2.461   16.783          0.424    0.000    0.000    0.000
H2                 529           129         16.457    9.986   14.925          0.424    0.000    0.000    0.000
H2                 530           130          4.616   10.635    8.448          0.424    0.000    0.000    0.000
H2                 531           131         12.646   17.579    7.781          0.424    0.000    0.000    0.000
H2                 532           132          3.177   19.696   15.595          0.424    0.000    0.000    0.000
H2                 533           133          9.304   18.592   10.601          0.424    0.000    0.000    0.000
H2                 534           134         19.507   16.129    4.044          0.424    0.000    0.000    0.000
H2                 535           135         11.351    0.182   10.627          0.424    0.000    0.000    0.000
H2                 536           136          6.358   19.580   18.068          0.424    0.000    0.000    0.000
H2                 537           137         19.101   10.788   15.005          0.424    0.000    0.000    0.000
H2                 538           138         18.694    2.616   12.905          0.424    0.000    0.000    0.000
H2                 539           139          0.640   18.476    1.564          0.424    0.000    0.000    0.000
H2                 540           140         19.248    8.898   17.654          0.424    0.000    0.000    0.000
H2                 541           141          2.000    0.025   10.971          0.424    0.000    0.000    0.000
H2                 542           142          2.795   11.514   16.033          0.424    0.000    0.000    0.000
H2                 543           143         10.561   15.988   11.400          0.424    0.000    0.000    0.000
H2                 544           144         19.057   19.748    4.426          0.424    0.000    0.000    0.000
H2                 545           145          2.949    6.374   14.169          0.424    0.000    0.000    0.000
H2                 546           146         14.672   11.840    7.270          0.424    0.000    0.000    0.000
H2                 547           147          2.406   13.399   14.266          0.424    0.000    0.000    0.000
H2                 548           148          2.944   14.403   16.323          0.424    0.000    0.000    0.000
H2                 549           149         16.417   13.001    6.768          0.424    0.000    0.000    0.000
H2                 550           150          4.307    7.569    4.169          0.424    0.000    0.000    0.000
H2                 551           151         10.777    9.624   18.614          0.424    0.000    0.000    0.000
H2                 552           152         16.233    9.143    7.562          0.424    0.000    0.000    0.000
H2                 553           153         11.756   10.443   16.378          0.424    0.000    0.000    0.000
H2                 554           154         11.394   14.285   13.476          0.424    0.000    0.000    0.000
H2                 555           155         12.942    1.326   12.509          0.424    0.000    0.000    0.000
H2                 556           156         15.610   13.355   12.776          0.424    0.000    0.000    0.000
H2                 557           157          5.497    2.364   13.573          0.424    0.000    0.000    0.000
H2                 558           158         14.529   14.842   13.496          0.424    0.000    0.000    0.000
H2                 559           159         16.481   16.626   13.455          0.424    0.000    0.000    0.000
H2                 560           160          7.851   10.980    4.532          0.424    0.000    0.000    0.000
H2                 561           161          5.840   19.837   10.623          0.424    0.000    0.000    0.000
H2                 562           162          7.379    1.427   12.528          0.424    0.000    0.000    0.000
H2                 563           163         11.792    4.249   18.397          0.424    0.000    0.000    0.000
H2                 564           164          2.105    4.239   14.912          0.424    0.000    0.000    0.000
H2                 565           165         15.967   18.291   13.843          0.424    0.000    0.000    0.000
H2                 566           166         14.585    1.991    9.118          0.424    0.000    0.000    0.000
H2                 567           167          7.547    8.127   19.812          0.424    0.000    0.000    0.000
H2                 568           168         13.234    7.288    9.180          0.424    0.000    0.000    0.000
H2                 569           169         11.343   13.205   15.816          0.424    0.000    0.000    0.000
H2                 570           170         12.206   17.087   12.738          0.424    0.000    0.000    0.000
H2                 571           171         15.558   18.122   10.075          0.424    0.000    0.000    0.000
H2                 572           172         11.985   19.155   14.361          0.424    0.000    0.000    0.000
H2                 573           173         19.143    2.064    8.104          0.424    0.000    0.000    0.000
H2                 574           174          6.164    6.497    7.742          0.424    0.000    0.000    0.000
H2                 575           175          6.204   17.199   17.053          0.424    0.000    0.000    0.000
H2                 576           176          7.614    5.452   11.016          0.424    0.000    0.000    0.000
H2                 577           177          5.604    8.903   10.203          0.424    0.000    0.000    0.000
H2                 578           178         13.752    3.817   12.334          0.424    0.000    0.000    0.000
H2                 579           179          7.940   13.920   15.849          0.424    0.000    0.000    0.000
H2                 580           180         16.098    5.370   15.731          0.424    0.000    0.000    0.000
H2                 581           181         14.955   15.309   10.257          0.424    0.000    0.000    0.000
H2                 582           182         10.817   13.012    7.800          0.424    0.000    0.000    0.000
H2                 583           183         16.972    1.433    7.639          0.424    0.000    0.000    0.000
H2                 584           184          7.349    6.607   13.437          0.424    0.000    0.000    0.000
H2                 585           185          1.872   19.798    0.376          0.424    0.000    0.000    0.000
H2                 586           186          5.169   19.097    1.767          0.424    0.000    0.000    0.000
H2                 587           187          4.121    5.463    3.119          0.424    0.000    0.000    0.000
H2                 588           188          4.180   17.942    6.905          0.424    0.000    0.000    0.000
H2                 589           189          3.641   16.236    4.270          0.424    0.000    0.000    0.000
H2                 590           190         14.542   13.993    0.454          0.424    0.000    0.000    0.000
H2                 591           191         15.787   17.274   18.942          0.424    0.000    0.000    0.000
H2                 592           192          4.557    4.551   17.221          0.424    0.000    0.000    0.000
H2                 593           193          5.373    6.515   10.744          0.424    0.000    0.000    0.000
H2                 594           194         11.224    4.244    0.862          0.424    0.000    0.000    0.000
H2                 595           195         10.913    5.977   13.457          0.424    0.000    0.000    0.000
H2                 596           196          1.987    2.450    2.229          0.424    0.000    0.000    0.000
H2                 597           197         16.896    3.979   14.502          0.424    0.000    0.000    0.000
H2                 598           198          3.824   19.608    4.312          0.424    0.000    0.000    0.000
H2                 599           199         16.692   14.222   15.493          0.424    0.000    0.000    0.000
H2                 600           200         17.716   18.264    6.527          0.424    0.000    0.000    0.000
