# Electrode atom charges in atomic unit
# -------------------------------------
# Charge:   1 au = 1.602176565e-19 C = 1 e
# step        0
-1.145314687465104E-003
-6.498940474309884E-004
-1.208079447912027E-003
+4.413643053091045E-004
+1.590330832617935E-005
+1.667035340612804E-003
+1.779642328422318E-003
+9.271712837448363E-004
+6.972257137630791E-004
+6.758645644283250E-005
-1.482070628163255E-004
-3.476685786745764E-004
+2.450645206935152E-004
+6.914314117872043E-004
+8.642760228301831E-004
+1.491790788767758E-003
+1.446505300742762E-003
+6.568015591437011E-005
+2.350824195203656E-004
-6.358512126497168E-004
-4.407326930544581E-004
+1.011417470536231E-003
+5.536006457777305E-004
+1.339006054485588E-003
+1.400473085353382E-003
+1.211340150413622E-003
+1.050339356330646E-003
+1.283922854812338E-003
+8.449619652598644E-004
+4.005585221213767E-005
-7.627846366175352E-004
+4.264777477562579E-004
+1.519846945825888E-003
+3.461125971945410E-003
+2.625128764560114E-003
+2.705249660541775E-003
+1.444326476536653E-003
-1.886229124087063E-004
+8.545398931107425E-004
-7.758004346174152E-005
+9.989423315027069E-004
-1.069362605205663E-003
-6.564284496430216E-004
-9.242245135601570E-004
+1.969790353952017E-003
+1.967618387843158E-003
+3.415587145486372E-003
+1.793542858037907E-003
-3.982328412211558E-006
-1.288115018324228E-003
-1.845839795410503E-003
-2.381199233378275E-003
-1.551135804463596E-003
-2.720653407102217E-003
-3.096636234825453E-003
-3.033463247757937E-003
-6.652860380362820E-004
-1.515483070781680E-003
+4.345432095988006E-004
-4.839857766484828E-004
-5.867302852424346E-004
-9.751891395909196E-004
-1.631890766908754E-003
-1.851371761352513E-003
-1.928654533317597E-003
-9.272309341235841E-005
-1.953023007981360E-003
-1.208129818924556E-004
-2.363771924288010E-003
-9.612883842937031E-004
-1.356150469193257E-003
-6.585845275183082E-004
-2.742799123152225E-003
+8.361713133444643E-004
+1.355385899018548E-003
-1.836354551958872E-003
-4.438291769914029E-004
-4.780422078229169E-003
-5.931862106414399E-003
+7.737585688849002E-004
-6.472550462189580E-004
-3.775421129055770E-003
-3.194147033330004E-004
+2.084097865095617E-003
+3.181111228272939E-003
-1.736621713651622E-003
-1.682044349327701E-003
+1.792612602715596E-003
+3.153995366653504E-003
+1.773885471023656E-003
-6.821695275447874E-004
+4.188564589993875E-004
+7.423572973628892E-003
+4.760671186578963E-003
-7.249343981882239E-003
-7.143494824319960E-003
-9.668301690845867E-004
+2.682856200618903E-003
-1.612139607609957E-003
+1.035025569431076E-003
-3.977234465717906E-003
-2.861506666512447E-003
+2.063420037133066E-003
-3.846239997924912E-003
-3.662924424013899E-003
-3.264341256247295E-003
+7.190248618086165E-003
-1.789760638148551E-003
-3.216201253276133E-003
-2.652540943118481E-003
-2.737039081707541E-004
-6.017738957109773E-004
-1.090266782399868E-003
-2.799238386091448E-005
+8.842808844833701E-004
+1.776073533062187E-003
-3.278824936568141E-003
-1.166275385834408E-003
-2.334377677861373E-003
-6.842668952142051E-003
-1.057679438409674E-002
-6.959834010687325E-004
+5.364553713879626E-003
-3.553323257216235E-004
+2.679726989701323E-003
-5.377089396746539E-003
+3.610412302438952E-003
+8.937777361798246E-004
-2.234723723822652E-003
+5.046305894786943E-004
+5.701631259696390E-003
+6.459105244687686E-003
+1.404555427407968E-003
+4.274174364300782E-003
+1.542368439368211E-003
-7.036242194154663E-005
+9.036059790791470E-003
-1.176292774795299E-003
-8.788788281101854E-003
+6.252624138545841E-003
+8.396918112832207E-003
-2.974506464450541E-004
-1.750683477982523E-003
-3.358166632041737E-003
+5.226367021771051E-002
-1.119753001294362E-003
-5.176263197713576E-003
-2.198935785723645E-002
-1.698803800942178E-002
-4.364841481569293E-002
-4.586571660412267E-002
-4.548976875613764E-003
-4.171304341108516E-002
+6.361499354811725E-003
-2.806841264269813E-002
+4.107236078143889E-003
-3.441793145944313E-002
+3.007499832040142E-002
-1.547346319436715E-004
+5.520028463929035E-002
+6.451433688088150E-002
-1.200388227632478E-002
-4.225412060461372E-002
-2.287707432138971E-003
+4.144149390330397E-002
-1.932772712796954E-002
-6.866944407999526E-002
-3.011155769072002E-002
-3.145438319095819E-003
-9.744475174898314E-003
+2.141443652183270E-002
-3.373653455519658E-002
-4.239767601788052E-002
-4.776927602421007E-002
-1.472897123940412E-002
+8.313500255343630E-003
-6.588779055412880E-002
-7.750738840986808E-003
-1.406543287654187E-002
-1.880682160038299E-002
-3.515790852008263E-002
-2.506554598975543E-002
-2.982450582065155E-002
+1.179414857056921E-002
-2.382688508429151E-002
-6.437071590541576E-003
+1.305992636593309E-002
+4.217289049991118E-002
-2.567573877535867E-002
+5.941440258811388E-004
-5.090860604015889E-002
-7.849455358763595E-002
-8.440292050259489E-002
-6.608512373744354E-003
+9.382964278133182E-003
+4.817704498702868E-002
-1.240682381736944E-002
-2.285173418924419E-003
+6.707355191167812E-003
+4.576866755280624E-002
+3.766520696162015E-003
-2.430415341316526E-002
+6.704161618685603E-002
-7.097292778058989E-004
-2.653941175364139E-002
+6.416434907793520E-002
+1.411261396940216E-002
+3.377114895479366E-002
+2.460965510857346E-002
+4.271896801206129E-003
+5.399417145915161E-003
+6.221186556658408E-003
+3.179452556489790E-002
-3.164395282729102E-002
-2.055354438145079E-002
-1.757784589263957E-002
-5.865641232016883E-002
-3.286431804711341E-002
-1.838270862863686E-002
+2.841068794025694E-002
+1.551850192479316E-002
+9.202136080483282E-002
+7.100053182528872E-002
+5.989904017102098E-002
+6.023951368897994E-002
+1.859392232458426E-002
+2.334850972450898E-002
-4.311849783144102E-002
+3.380867336273263E-002
-4.865005256476215E-003
+6.086827551095914E-002
+4.640689713588247E-002
+3.614619792742591E-002
-2.667952461500668E-004
-1.507192161805931E-002
-1.129805409048082E-002
-5.006068457535343E-002
+3.964645820831469E-003
-5.531712483800352E-003
+5.836793153753735E-002
-9.301059152983137E-003
+7.787994839651876E-003
-1.244960537037049E-002
-5.303754212381557E-003
-1.764476865412101E-002
-8.228188147288070E-003
-1.998734252681321E-002
+1.821450038512668E-002
+5.150415264956423E-002
+8.876682946110873E-002
+5.655381792421194E-002
+3.100932963068920E-002
+9.431666538642016E-003
-1.089015300605538E-002
-3.154032416821692E-003
+2.025739677747772E-002
+6.604234364380274E-002
-2.697151440970837E-002
+4.440678640686292E-003
-7.343744294170674E-003
+4.956777578053480E-002
+2.910427004329261E-002
+8.659153016732433E-002
+3.530215941319849E-002
+1.332472230733451E-002
-1.633150684922443E-002
-3.650161123688061E-002
-5.919713150670262E-002
-2.311913290691761E-002
-3.748038373926598E-003
-1.072121220015250E-001
-8.502304270961936E-002
+8.800467403508939E-002
-6.732661668350910E-002
+2.450888727741488E-002
+1.963723996736701E-002
-7.628331406958459E-003
+4.930247504041865E-002
-7.600950044170715E-003
-1.445629898593414E-002
-2.677166837195678E-002
+5.459548370678789E-002
-1.019689657995299E-002
+2.358281165332838E-002
-8.339039736403159E-002
-6.029817562062994E-004
-3.856126262801392E-002
-2.694881461172103E-002
-4.838556537032780E-004
-2.186065692342558E-003
+5.963424279773271E-003
-5.998953014868636E-003
-2.160561913177283E-003
+7.282293977362966E-003
+9.455546423581892E-003
+2.531066332947208E-003
+2.988498748721985E-003
+3.193098455225302E-003
+1.956845818444412E-003
-1.674684485417620E-003
+2.657829230984639E-003
-3.203294757985580E-003
-2.591091830264415E-003
+1.074667584370756E-002
+7.757183360723242E-003
-3.578335722414484E-003
-2.492133017149341E-003
-3.711868964227298E-003
+6.071145058026696E-003
+2.704693302240930E-004
-3.451089684538094E-003
+3.570998724605751E-003
-5.035982434911685E-003
+2.879433273339808E-003
+3.164324771197354E-003
-1.556638723759857E-003
+1.199065433220412E-003
-2.573370555308064E-003
-1.363367739615199E-003
-1.141870882588519E-003
-1.903108945639928E-003
+3.052664014178116E-003
+5.082438722523478E-003
-3.180527583263783E-003
+1.994898289362732E-003
+1.283275542490905E-004
-4.556022601286713E-003
+3.849298780566216E-003
+4.742289566046254E-003
+1.934324509316671E-003
-5.977955380545998E-003
+1.204226296593220E-003
+4.203175774624888E-003
+5.832217633832899E-003
-6.014633121969720E-004
+8.269017198045318E-003
-2.699441930903545E-003
-1.542432753419851E-003
-6.324159783845450E-003
-5.151114916456446E-003
+6.341096868513238E-004
-7.352854706159193E-003
-8.248540715834491E-003
+1.740561571673384E-003
-1.793057044946862E-003
+3.189297348488835E-003
+4.314199671902064E-004
+2.484959946601849E-003
+1.315585062946662E-004
+3.046751140757148E-003
-3.286957292939446E-003
+8.748074212892468E-004
-2.844861576713162E-003
+1.417126529846592E-003
+6.996422626744974E-004
+1.725493804636069E-003
-1.005608793213345E-003
-1.079346455297104E-002
+2.409938045617571E-003
-3.542835323154418E-004
+1.381744769942805E-003
+1.029614560827651E-003
+1.348844822392529E-003
+2.885792498412948E-004
-4.288541515884149E-004
-1.260597445094037E-003
-1.340194032390705E-003
-4.915347776512709E-004
-3.366536336247043E-004
-9.597736894653371E-004
-9.105624774020293E-004
-5.339586888309450E-004
-1.744352061511535E-004
+1.159766928219591E-003
+8.355819578415469E-004
+6.883737262544576E-004
+1.847969344934187E-005
-5.126443152999545E-004
-4.155143883959574E-004
-1.210014402744765E-004
+1.264980290214253E-004
-1.509666418238848E-003
-1.896620483305746E-003
-1.702891441028893E-003
+6.514606175094494E-005
-9.829978877989489E-005
+9.716896703882613E-004
-6.589252437788659E-004
-6.611742450514335E-004
-9.970411197733088E-004
-7.601770673144124E-004
-5.822322710631200E-004
-1.301044558824401E-003
-1.993186292050245E-003
-2.245735827659077E-003
-1.778046125462300E-003
-1.994775324737005E-003
-1.514455689243112E-003
-8.604170217346881E-004
-2.878857146156424E-004
-8.151595749553430E-004
+1.101635815633661E-003
+5.669711159754072E-004
+1.402470465407222E-003
-6.175251131737856E-004
-6.768986453653949E-004
-2.190505605473710E-003
-2.234888071053984E-003
-1.583070316789187E-003
+5.319266390949334E-004
+1.381920155872126E-004
+1.735005613069241E-003
+1.237480324072795E-003
+1.938683724775033E-003
+2.668714072764168E-003
+2.820052490791062E-003
+1.044541258091448E-003
+1.039153523687978E-003
-3.806707232601552E-004
-4.354450539856617E-004
+7.515863642410324E-004
+1.908962342667677E-003
+1.989645630288920E-003
+1.256769201352455E-003
+1.589567098872045E-003
-2.406110910535970E-004
+1.615651500445135E-003
+6.513131131609475E-004
+1.818681086883045E-003
-2.117737508187620E-004
+6.025696373509373E-006
+3.618232133235709E-004

# step        1
-1.142792908765392E-003
-6.551646029717770E-004
-1.210824242033922E-003
+4.578330452825795E-004
+4.888935514486545E-005
+1.697600091269255E-003
+1.808929295942786E-003
+1.000061635113637E-003
+7.667332510310669E-004
+1.595813940528922E-004
-8.427070634722692E-005
-2.893842626503798E-004
+2.629621357502103E-004
+6.566729319334814E-004
+8.361445536907161E-004
+1.452901990522714E-003
+1.452102798446896E-003
+7.904986624902829E-005
+2.926027337537802E-004
-5.696323064596980E-004
-3.517699838597170E-004
+1.062786196128492E-003
+6.195508885739598E-004
+1.368267009324850E-003
+1.383523581015079E-003
+1.161551505826231E-003
+9.730888110338651E-004
+1.234860905963163E-003
+8.098117145338902E-004
+4.524957117493884E-005
-7.441610141998168E-004
+4.278085358871986E-004
+1.548988380592301E-003
+3.449288839550556E-003
+2.644830515819023E-003
+2.713642820468980E-003
+1.455377905015751E-003
-1.916798804999749E-004
+8.167482862782799E-004
-7.753868813451095E-005
+1.024873153591699E-003
-9.949539032108299E-004
-6.092707682240027E-004
-9.627909332386295E-004
+1.905930710012246E-003
+1.901224009059545E-003
+3.429102429232321E-003
+1.847916451988343E-003
+1.962535035397832E-005
-1.352996448664157E-003
-1.897825909784633E-003
-2.439782935185809E-003
-1.535988098239579E-003
-2.730229410096896E-003
-3.089114212614546E-003
-3.086849451333137E-003
-7.837037691679831E-004
-1.575351501336786E-003
+4.284075977946943E-004
-4.743178841820898E-004
-6.379847985407007E-004
-1.023127076449787E-003
-1.711015665481720E-003
-1.855242473072883E-003
-1.962330571034815E-003
-9.858288865679613E-005
-1.976250024822050E-003
-1.020824863020743E-004
-2.388793573594423E-003
-9.271359537855314E-004
-1.363068235885695E-003
-6.567987338544181E-004
-2.730382698644450E-003
+7.291920926508190E-004
+1.330507301659530E-003
-1.902219278770443E-003
-5.464735756974733E-004
-4.654846081288828E-003
-5.959499901584602E-003
+7.586173794054716E-004
-6.158461441851368E-004
-3.774750455418665E-003
-4.041101868472557E-004
+2.242038431291556E-003
+3.122419591549549E-003
-1.740296773043606E-003
-1.589325674704765E-003
+1.750944230231417E-003
+3.214895738060439E-003
+1.784382138101610E-003
-7.008233699318442E-004
+3.944022559110136E-004
+7.199748076450378E-003
+4.668612449475577E-003
-7.185656284907736E-003
-7.104861133392165E-003
-9.025301225169028E-004
+2.674806464760266E-003
-1.554305580401135E-003
+1.093704459867500E-003
-4.059356966086975E-003
-2.860193262309286E-003
+2.063456319727894E-003
-3.908606668785041E-003
-3.593552209004104E-003
-3.610733482725726E-003
+6.816981210816081E-003
-1.726849816889630E-003
-3.089307901190159E-003
-2.480268117263904E-003
-2.177573940753076E-004
-6.759677947489843E-004
-1.115550840787678E-003
-1.124579993192522E-004
+8.811078694078508E-004
+1.801265155193421E-003
-3.341075056384543E-003
-1.047806634245158E-003
-2.251712571655750E-003
-6.910534282107705E-003
-1.002511317485037E-002
-8.178223564687864E-004
+5.189734017590107E-003
-3.812915069055508E-004
+2.651043678395327E-003
-5.216118253974135E-003
+3.692420716885424E-003
+9.084815675112045E-004
-2.205040273951067E-003
+4.271268350364557E-004
+5.576778076826366E-003
+6.585768558312083E-003
+1.390091697183338E-003
+4.294442336505369E-003
+1.559922718434516E-003
-1.666699228048899E-005
+9.259373911858619E-003
-1.173796867508407E-003
-8.927181356902071E-003
+6.063684363875625E-003
+8.419019847076903E-003
-2.252604022995595E-004
-1.672923897501224E-003
-3.288402392090863E-003
+5.199857468724968E-002
-1.982900023675840E-003
-4.221527014042783E-003
-2.330079286647670E-002
-1.806226298654421E-002
-4.324391207497173E-002
-4.710995552590327E-002
-5.354503507726534E-003
-4.047333974680997E-002
+5.363401982004867E-003
-2.688032583815184E-002
+4.884107699277816E-003
-3.427362205306758E-002
+3.030990211207803E-002
-6.187115632540151E-004
+5.647791154398317E-002
+6.459340561286070E-002
-1.140029038082828E-002
-4.140147973565520E-002
-3.953636185400265E-003
+4.088584421454559E-002
-2.194777566995249E-002
-6.882455903215995E-002
-2.986432012095760E-002
-3.929533855178555E-003
-9.083364305873108E-003
+2.231179169251078E-002
-3.354473649839491E-002
-4.102830316157430E-002
-4.950597579113718E-002
-1.493573722878234E-002
+9.291068189700592E-003
-6.891574729536945E-002
-9.750674844452516E-003
-1.781476509924812E-002
-2.123889791105356E-002
-3.274927908055032E-002
-2.356009226692809E-002
-2.800088744873707E-002
+1.059065580776189E-002
-2.562290791984990E-002
-7.090748980765353E-003
+1.187682375969340E-002
+4.186452921675437E-002
-2.447713648236957E-002
+1.475836746280538E-003
-5.195122534435385E-002
-7.486033269629239E-002
-8.291546645911844E-002
-6.035437229509603E-003
+7.574049936130998E-003
+4.786918025692122E-002
-1.339405280898997E-002
-1.978026230533274E-003
+8.180408670547923E-003
+4.561856502455599E-002
+2.229073558097482E-003
-2.481984442401803E-002
+6.619634440132284E-002
+3.168780068667533E-004
-2.309486629279232E-002
+6.183148280328266E-002
+1.293269645417415E-002
+3.374727355012637E-002
+2.573928191374134E-002
+6.292798674683647E-003
+3.577171940541272E-003
+2.444082290942215E-003
+3.199663858619790E-002
-3.017000650202719E-002
-1.950608207216621E-002
-1.525037747910517E-002
-5.765779018956171E-002
-3.281755481001975E-002
-1.789677773465303E-002
+2.908362533238203E-002
+1.665348066998210E-002
+9.173396235087550E-002
+7.092159804705153E-002
+6.182798911265104E-002
+6.202226318041393E-002
+2.100021395923156E-002
+2.555857817187259E-002
-3.950382816633578E-002
+3.342357649594872E-002
-5.868767321815015E-003
+5.844377011268821E-002
+4.814979827285495E-002
+3.708279168637884E-002
+9.336203415765480E-004
-1.332695294645338E-002
-8.468130564487834E-003
-4.666034802033950E-002
+5.050693685270245E-003
-3.646355421596000E-003
+5.768594115764699E-002
-7.713824176120983E-003
+7.030071643896341E-003
-1.306301028623819E-002
-7.107713761853369E-003
-1.732981045428230E-002
-1.083713345158687E-002
-1.982790859929807E-002
+1.843556200432626E-002
+5.163091432801023E-002
+8.829083186482102E-002
+5.805882704521977E-002
+3.063694193161546E-002
+1.055789992710368E-002
-9.211066123014139E-003
-2.343634063254561E-003
+2.060749649280047E-002
+6.547346755779489E-002
-2.302192070017979E-002
+9.622055972591042E-003
-5.688754733735864E-003
+4.695934645081620E-002
+2.845963042059471E-002
+8.745696751035839E-002
+3.754596130743026E-002
+1.488696649560231E-002
-1.802573223045229E-002
-4.126631233790032E-002
-6.075155588197626E-002
-2.265271165884971E-002
-7.035003824343023E-003
-1.085445296695454E-001
-8.565349561447447E-002
+8.052062645539604E-002
-7.089525371397179E-002
+2.529538408832121E-002
+2.001921420623628E-002
-8.369172426252739E-003
+4.709866463147875E-002
-9.355872397861491E-003
-1.468410691662299E-002
-2.842403030087903E-002
+5.230626796347643E-002
-1.082791619843941E-002
+2.346773868363779E-002
-8.401609917404654E-002
-4.900603092049440E-004
-3.763906393104764E-002
-2.666745899212791E-002
-5.472898309007540E-004
-2.218201294325321E-003
+5.881264547796157E-003
-5.792696177248349E-003
-2.115700441612794E-003
+7.313204475260908E-003
+9.275721747195396E-003
+2.485931059469714E-003
+3.135312609340269E-003
+3.328026754627361E-003
+2.078607458345234E-003
-1.576352625355696E-003
+2.689147457731474E-003
-3.246125445509575E-003
-2.589323094708506E-003
+1.053958838855250E-002
+7.815786921260628E-003
-3.460997000620578E-003
-2.387456597214458E-003
-3.465645349945080E-003
+6.047506201324650E-003
+2.243098384675417E-004
-3.359255758603478E-003
+3.582193995595292E-003
-4.855636679072028E-003
+2.687323276898639E-003
+3.070401345941446E-003
-1.449952110344603E-003
+1.075022257415770E-003
-2.602066391267365E-003
-1.533754193971743E-003
-1.037161365125558E-003
-1.909269167722870E-003
+3.145614938613999E-003
+5.159043862548204E-003
-3.118195580463883E-003
+2.026990165472432E-003
+2.508676914533935E-004
-4.479656899335039E-003
+3.785981950003143E-003
+4.801016139939542E-003
+1.972826780625947E-003
-5.174850692132064E-003
+1.374617409187002E-003
+3.980614250512684E-003
+5.721644154041951E-003
-4.509469032927572E-004
+8.186231499956256E-003
-2.672512754937158E-003
-1.575603725332738E-003
-6.412277538439183E-003
-5.156599829752409E-003
+6.239395460960376E-004
-7.343325697095373E-003
-8.470917627677738E-003
+1.695296080049775E-003
-1.915938055522060E-003
+2.896792159390795E-003
+4.484775416842585E-004
+2.577935339224024E-003
+4.703346458425811E-005
+2.996266074959310E-003
-3.300145797217810E-003
+8.611639268554997E-004
-2.799763749482424E-003
+1.267828794655654E-003
+6.852349161327048E-004
+1.792107752054785E-003
-9.959761126426797E-004
-1.073595694254415E-002
+2.383062727965564E-003
-4.226735593475294E-004
+1.397438535143452E-003
+1.018704164340322E-003
+1.325865528911175E-003
+2.741181199786899E-004
-4.275052411270256E-004
-1.266641466046813E-003
-1.373588229455455E-003
-5.310002723307359E-004
-3.488125854519986E-004
-9.450004152415740E-004
-8.384697397855252E-004
-4.868838054485370E-004
-1.696283508253211E-004
+1.166187855426080E-003
+8.381925858527847E-004
+7.234454285146897E-004
+3.310888533060887E-005
-5.038436180821101E-004
-4.423730537465457E-004
-1.810085879309259E-004
+8.034648993963692E-005
-1.576316211159012E-003
-1.881500973639588E-003
-1.717361915470425E-003
+4.857135956780323E-005
-4.839033500555141E-005
+1.010074470650744E-003
-6.400276942070394E-004
-6.524891505302317E-004
-1.045866497766111E-003
-7.886167694577740E-004
-5.960753950608323E-004
-1.362310553818343E-003
-2.020062386772332E-003
-2.320684675926608E-003
-1.795371100038922E-003
-1.928710579856501E-003
-1.459341737666919E-003
-8.231405362177945E-004
-3.192825309054835E-004
-8.783152973800363E-004
+1.032013220856814E-003
+5.166549415926649E-004
+1.419322641161904E-003
-5.833238269311256E-004
-6.178840340222846E-004
-2.164340641847848E-003
-2.166054458084022E-003
-1.540451916213133E-003
+5.245241225046462E-004
+1.321463911884055E-004
+1.716467029924817E-003
+1.192280808375360E-003
+1.942378540288316E-003
+2.658807431980936E-003
+2.792864810274072E-003
+1.075679211930271E-003
+1.059639448628201E-003
-3.275685566730473E-004
-3.932032414758847E-004
+7.705757655354192E-004
+1.898757413972532E-003
+1.972540602707182E-003
+1.266174274723906E-003
+1.615249697135255E-003
-2.319477684934435E-004
+1.585983348001385E-003
+6.022774302080475E-004
+1.790114385251363E-003
-1.845600693962596E-004
+4.658167551820583E-005
+4.158569391301490E-004

