# Electrode atom charges in atomic unit
# -------------------------------------
# Charge:   1 au = 1.602176565e-19 C = 1 e
# step        0
-2.858639553515096E-002
-3.116666941096803E-002
-3.897131238109183E-002
-3.191952196252715E-002
-3.621840828847713E-002
-3.561522951779159E-002
-3.844581880490656E-002
-3.632589840445179E-002
-6.095510327397227E-002
-2.694871604688318E-002
-2.840945407540714E-002
-3.341975486920880E-002
-3.929159456836340E-002
-3.170713529853576E-002
-3.715162912729586E-002
-5.152134256532639E-002
-2.516380274574836E-004
-1.851144326951030E-004
-1.843141391168909E-004
-2.186363665501224E-004
-2.442702838738963E-004
-2.451675352675122E-004
-2.921401603114090E-004
-3.598576106572673E-004
-2.090130671934375E-004
-2.336093584314284E-004
-2.782537407833527E-004
-2.345972513362943E-004
-2.769471422076826E-004
-2.725770865891643E-004
-2.725158043340418E-004
-2.778288311366574E-004
+1.315996816229385E-005
+1.513896969326432E-005
+1.596289823192224E-005
+1.150417766304972E-005
+1.286950784235745E-005
+1.322071209486167E-005
+1.522747637990087E-005
+3.351119145601293E-006
+9.492310453989415E-006
+1.413896416161654E-005
+1.135969202197368E-005
+3.650997963638067E-006
+2.104509215390694E-005
+8.770101372804554E-006
+1.787400305225061E-005
+1.324421736928767E-005
-1.637240167447899E-001
-1.476870595528009E-001
-1.853361018666775E-001
-1.919177177691997E-001
-1.626337045025550E-001
-1.466955786671953E-001
-1.792978229248106E-001
-1.833136794984967E-001
-1.906789477234985E-001
-1.476917029740540E-001
-1.684624813019923E-001
-1.473324918915107E-001
-2.130218539600840E-001
-1.781667792301132E-001
-1.415290632544387E-001
-1.757828831305233E-001
-4.137939535658344E-003
-3.940221752310040E-003
-3.975778575303110E-003
-4.886766209101045E-003
-4.436552469191583E-003
-4.439975361613040E-003
-6.895628038991016E-003
-4.983647161133709E-003
-5.192198741664087E-003
-5.130942375328853E-003
-4.045604155425471E-003
-3.785669131691725E-003
-6.284008456866844E-003
-3.894929760345705E-003
-5.242191893828861E-003
-5.737027313898960E-003
+2.018015643333633E-005
+2.095379691884700E-005
+2.942232455271548E-005
+2.943048041093261E-005
+3.935476581277590E-005
+2.887808362128122E-005
+3.157475106264555E-005
+3.193280373579506E-005
+7.117771840922592E-005
+1.061265892219306E-005
+1.835702199948580E-005
+3.123424789378930E-005
+3.901931879179434E-005
+2.912449965745446E-005
+3.850227190206508E-005
+6.112755925144498E-005
-3.696597425914052E-005
-2.924677249155757E-005
-3.388734667004390E-005
-3.606044145412234E-005
-3.890207572643863E-005
-3.420145792356873E-005
-3.238618156535558E-005
-3.632506746202086E-005
-3.819538886161958E-005
-3.685165814576712E-005
-2.695616472070441E-005
-3.443430789624461E-005
-4.178088987060001E-005
-4.198339738934319E-005
-2.832135254584633E-005
-2.879024593532960E-005
+5.550112887676005E-003
+4.480751583374035E-003
+4.201458122038764E-003
+4.248951254474511E-003
+3.861782386125940E-003
+4.755263933622393E-003
+4.494110403086824E-003
+4.468907810358589E-003
+4.198402997867889E-003
+4.237139192633348E-003
+5.217502697039555E-003
+4.584175712104088E-003
+5.227158791642432E-003
+5.025710895077868E-003
+4.337119753862606E-003
+4.397237995774572E-003
+1.752213824714900E-001
+1.851854661290697E-001
+1.654522239580520E-001
+1.533276338634920E-001
+1.690492021113384E-001
+1.666048612557952E-001
+1.764125869461150E-001
+1.643674105274940E-001
+1.868083310325223E-001
+1.714157651441464E-001
+1.785582768614221E-001
+1.684249127636357E-001
+1.898853475388359E-001
+1.766019126086265E-001
+1.484001155014404E-001
+1.771655878076462E-001
-1.544250980504710E-005
-1.147054093424099E-005
-8.542559836281310E-006
-1.291946869952874E-005
-6.723898732151720E-006
-1.003484573959377E-005
-1.094806680838727E-005
-9.153076160921743E-006
-1.153935954906166E-005
-1.369524457559625E-005
-8.903771993254383E-006
-1.366569893561906E-005
-7.434679291043746E-006
-1.990239771715429E-005
-1.842196526294230E-005
-8.278217468201622E-006
+2.258469258605284E-004
+2.673763492509805E-004
+2.386969531922003E-004
+2.479311444432129E-004
+1.992301128150802E-004
+2.343609591819072E-004
+2.511520043768611E-004
+2.107790350363762E-004
+2.167201334576646E-004
+2.245245423320582E-004
+2.476026327726477E-004
+2.618191007282987E-004
+2.952688941380416E-004
+2.495508795495688E-004
+2.328711819615227E-004
+2.178822025694881E-004
+3.692669880392137E-002
+3.521378182830883E-002
+3.363857488979340E-002
+2.981536821751307E-002
+3.230441148025897E-002
+3.408932969182171E-002
+3.466514229498695E-002
+3.750601007283209E-002
+3.755384004151740E-002
+3.772966042019312E-002
+3.374907671137672E-002
+3.655727748682389E-002
+3.838400628056087E-002
+3.868614499075451E-002
+3.187595599567641E-002
+3.229920805479924E-002

