# Electrode atom charges in atomic unit
# -------------------------------------
# Charge:   1 au = 1.602176565e-19 C = 1 e
# step        0
-2.806896161668448E-002
-3.064580556310704E-002
-3.845051078016334E-002
-3.140579511610241E-002
-3.570865776927341E-002
-3.509698348354874E-002
-3.792707842010530E-002
-3.580839657363198E-002
-6.043766404626865E-002
-2.642785110172130E-002
-2.788865187036121E-002
-3.290600572741690E-002
-3.878142014780329E-002
-3.118847192174386E-002
-3.663247007145137E-002
-5.100341854220183E-002
-2.484345403974168E-004
-1.817602781191342E-004
-1.809671863456731E-004
-2.156356637977598E-004
-2.414098340287592E-004
-2.418675159376902E-004
-2.888186503815534E-004
-3.565740557567835E-004
-2.058736508937984E-004
-2.303203455714725E-004
-2.749717465362848E-004
-2.316597975991934E-004
-2.740139286710524E-004
-2.692035792313032E-004
-2.691205236378796E-004
-2.744725958745961E-004
+1.300494097720010E-005
+1.498223671747834E-005
+1.580619664749488E-005
+1.134780306641618E-005
+1.271385794409671E-005
+1.306427904404779E-005
+1.507105285254979E-005
+3.196268347373164E-006
+9.337822508227782E-006
+1.398271251968273E-005
+1.120346824737809E-005
+3.495110840076335E-006
+2.088879119107403E-005
+8.613033457993866E-006
+1.771694626340116E-005
+1.308868545595011E-005
-1.611205840633379E-001
-1.450785142953710E-001
-1.827277783451888E-001
-1.893166283257838E-001
-1.600342804443989E-001
-1.440888183665227E-001
-1.766897246807269E-001
-1.807087060360562E-001
-1.880760016024476E-001
-1.450836470110790E-001
-1.658546462920345E-001
-1.447318861952870E-001
-2.104220510861293E-001
-1.755596409565568E-001
-1.389205850699217E-001
-1.731775357546801E-001
-4.072478865567008E-003
-3.871989989627189E-003
-3.907425180918909E-003
-4.818644263442697E-003
-4.369918448586703E-003
-4.372411388981113E-003
-6.828105080519591E-003
-4.918311317339105E-003
-5.127121528901071E-003
-5.063088601942382E-003
-3.977629640610888E-003
-3.717924621198157E-003
-6.216913804068228E-003
-3.826901291975432E-003
-5.174205476906175E-003
-5.671236408121669E-003
+1.964138299460337E-005
+2.042548552501923E-005
+2.889347116225607E-005
+2.887503656202128E-005
+3.878226716134492E-005
+2.833913306991726E-005
+3.103810658082013E-005
+3.139480460938511E-005
+7.064140413364477E-005
+1.008676212295268E-005
+1.783056722994257E-005
+3.068112105080998E-005
+3.844856914149313E-005
+2.858771073068584E-005
+3.796781425085109E-005
+6.059164143173951E-005
-3.645199783866083E-005
-2.874550774192664E-005
-3.338361186341000E-005
-3.552982039767262E-005
-3.835135098243360E-005
-3.368618683234481E-005
-3.187330648815840E-005
-3.580941361003655E-005
-3.767893094520541E-005
-3.634796036139258E-005
-2.645000782772882E-005
-3.390134754309416E-005
-4.123200455045846E-005
-4.147038295503628E-005
-2.781075438656019E-005
-2.827676028841965E-005
+5.483524812076785E-003
+4.413250107044359E-003
+4.133982606065296E-003
+4.183675274021709E-003
+3.797198172439808E-003
+4.687939508510824E-003
+4.426664732314357E-003
+4.401676558445746E-003
+4.132273366196102E-003
+4.170100002756929E-003
+5.150488435224916E-003
+4.519352634094958E-003
+5.162193389210978E-003
+4.958010686688303E-003
+4.269297415831250E-003
+4.329631509154096E-003
+1.726214825807251E-001
+1.825782280970475E-001
+1.628436455343680E-001
+1.507221875252513E-001
+1.664461580240890E-001
+1.639967049143093E-001
+1.738046521253117E-001
+1.617667081625542E-001
+1.842088103285734E-001
+1.688089054555942E-001
+1.759500787531962E-001
+1.658198407088959E-001
+1.872818161196523E-001
+1.739932661938002E-001
+1.457916913885768E-001
+1.745644009280529E-001
-1.528853150136333E-005
-1.131609878132187E-005
-8.387856909869122E-006
-1.276639059665665E-005
-6.571659721221667E-006
-9.881171296242953E-006
-1.079441997587138E-005
-8.999529127616352E-006
-1.138601425870490E-005
-1.354141595178443E-005
-8.749683224509795E-006
-1.351328080580097E-005
-7.281915615059863E-006
-1.974825619433770E-005
-1.826785581217889E-005
-8.124196187457798E-006
+2.228488840516647E-004
+2.639418113411807E-004
+2.352403509351880E-004
+2.445126734323600E-004
+1.960269472849648E-004
+2.310083567098667E-004
+2.478063358938385E-004
+2.077803816499163E-004
+2.137942943843405E-004
+2.211629512218464E-004
+2.442192556264184E-004
+2.584727570455377E-004
+2.920019552111039E-004
+2.461334408897582E-004
+2.294608600116793E-004
+2.148205939053766E-004
+3.640893447510489E-002
+3.469258341991247E-002
+3.311744298110951E-002
+2.930129514570627E-002
+3.179433793617735E-002
+3.357075382437444E-002
+3.414607050515074E-002
+3.698818238174739E-002
+3.703608064845151E-002
+3.720846274856535E-002
+3.322794505006124E-002
+3.604322633068790E-002
+3.787350696262411E-002
+3.816714992294096E-002
+3.135646366724914E-002
+3.178095631575856E-002

