# Energy in atomic unit (1 Eh = 2625.499640 kJ/mol)
# -------------------------------------------------
# step         Hamiltonian             Kinetic energy          Potential energy          Coulomb energy       van_der_Waals energy      Coulomb LR energy       Coulomb keq0 energy       Coulomb SR energy       Coulomb self energy     Coulomb molecule energy     Fumi-Tosi energy     Fumi-Tosi molecule energy
      0 -1.386154410884337E+002   1.037248627786049E+001  -1.489879273662942E+002  -1.679513178216930E+002   1.896339045539883E+001   2.403497858222159E-001   8.557608565561096E-001  -9.843216201834463E+001  -7.061526644572670E+001   0.000000000000000E+000   1.896339045539883E+001   0.000000000000000E+000 
      1 -1.386154065277566E+002   1.046514676494755E+001  -1.490805532927041E+002  -1.680722125039466E+002   1.899165921124247E+001   2.370880795886190E-001   8.533046128116486E-001  -9.847269020037405E+001  -7.068991499597286E+001   0.000000000000000E+000   1.899165921124247E+001   0.000000000000000E+000 
