# Pressure of the system
# ----------------
# Pressure:   1 bar = 3.3988273773641905e-09 ua
# step       Total pressure           xx component            yy component            zz component            xy component            xz component            yz component            LR correction     
       0 -2.073814660289939E-004 -2.013509626628296E-004 -2.058728176594607E-004 -2.149206177646914E-004 -7.541904364721547E-006  1.447847750774396E-006  1.905466268062085E-006  0.000000000000000E+000
