# Stress tensor of the system
# ----------------
# Pressure:   1 bar = 3.3988273773641905e-09 ua
# step        xx component            yy component            zz component            xy component            xz component            yz component      
       0  0.000000000000000E+000  0.000000000000000E+000  0.000000000000000E+000  0.000000000000000E+000  0.000000000000000E+000  0.000000000000000E+000
