ITEM: TIMESTEP
0
ITEM: NUMBER OF ATOMS
1
ITEM: BOX BOUNDS pp pp ff
-1.0000000000000000e+02 1.0000000000000000e+02
-1.0000000000000000e+02 1.0000000000000000e+02
-2.0000000000000000e+02 2.0000000000000000e+02
ITEM: ATOMS id element x y z fx fy fz 
1 CAB                    0                    0                    0 4.92865164189458e-19 -3.38078693524451e-18     3.65367602944316 
